<svg xmlns="http://www.w3.org/2000/svg" width="200" height="100" viewBox="0 0 200 100">
  <path fill="#151f39" d="M568.952,2318.2a0.372,0.372,0,0,1-.125.17c-0.13.11-.261,0.22-0.395,0.34-0.068.06-.131,0.12-0.207,0.18-0.051.03-.1,0.07-0.155,0.1l-0.3.21c-0.206.13-.411,0.27-0.632,0.4-0.434.26-.9,0.5-1.4,0.74a20.437,20.437,0,0,1-3.277,1.21,26.29,26.29,0,0,1-3.228.69c-0.236.12-.5,0.25-0.806,0.39a23.891,23.891,0,0,1-2.652.97c-1.055.32-2.273,0.62-3.621,0.92s-2.827.59-4.416,0.91c-0.8.14-1.63,0.28-2.484,0.43-0.426.08-.862,0.14-1.3,0.2l-1.342.18a91.465,91.465,0,0,1-23.763-.03c-2.32-.31-4.476-0.69-6.432-1.09-1.3.2-2.521,0.35-3.6,0.47-0.6.07-1.14,0.12-1.644,0.16a2.584,2.584,0,0,1-.829-0.06,1.043,1.043,0,0,1-.4-0.21,0.779,0.779,0,0,1-.283-0.77,1.035,1.035,0,0,1,.108-0.29,2.906,2.906,0,0,1,.224-0.34c-1.224-.08-2.567-0.22-4-0.45a46.573,46.573,0,0,1-6.415-1.51c-1.129.32-2.47,0.65-3.923,0.92a36.037,36.037,0,0,1-6.662.66h-0.215l-0.063-.14a0.631,0.631,0,0,1-.047-0.37,0.667,0.667,0,0,1,.112-0.27,0.692,0.692,0,0,1,.343-0.27,0.533,0.533,0,0,1,.208-0.02,2.951,2.951,0,0,1-.1-0.69l-0.178-.49c0.008,0-.006-0.01-0.039-0.01a0.251,0.251,0,0,0-.122,0,0.053,0.053,0,0,1-.015.01h0l-0.009-.01h-0.015a0.613,0.613,0,0,0-.134-0.05c-0.037-.01-0.081-0.02-0.131-0.03l-0.08-.02-0.074-.01-0.093-.03a1.53,1.53,0,0,1-.5-0.22,0.927,0.927,0,0,1-.309-0.36,0.757,0.757,0,0,1-.071-0.43,0.806,0.806,0,0,1,.168-0.39,1.025,1.025,0,0,1,.146-0.17c0.051-.05.108-0.1,0.167-0.15l0.086-.06a0.706,0.706,0,0,1,.091-0.06,0.8,0.8,0,0,1,.127-0.07,2.029,2.029,0,0,1,.468-0.15,1.625,1.625,0,0,1,.469-0.04,2.724,2.724,0,0,1-.1-0.44,0.749,0.749,0,0,0-.154-0.38,0.045,0.045,0,0,0-.027-0.02c-0.008-.01-0.018-0.01-0.027-0.02a0.155,0.155,0,0,1-.038-0.02h-0.011l-0.028-.01-0.083-.05a0.946,0.946,0,0,1-.455-0.39c-0.928-.05-1.821-0.08-2.664-0.1-0.706-.01-1.377-0.03-2-0.02-0.315.01-.618,0-0.91,0.01s-0.573.01-.84,0.02c-0.316,0-.612.01-0.891,0.02-0.329.18-.7,0.37-1.1,0.58-1.828.95-4.381,2.21-7.138,3.68-0.69.37-1.356,0.74-2,1.1s-1.294.7-1.939,0.99a13.653,13.653,0,0,1-3.6,1.03,19.282,19.282,0,0,1-2.476.24,2.755,2.755,0,0,1-.889-0.06,2,2,0,0,1-.225-0.07,0.987,0.987,0,0,1-.254-0.19,1.138,1.138,0,0,1-.076-0.12c-0.024-.02-0.049-0.04-0.077-0.06a1.8,1.8,0,0,1-.465-0.68c-0.141-.33-0.223-0.74-0.356-1.16a3.017,3.017,0,0,0-.116-0.32c-0.04-.1-0.105-0.23-0.154-0.38a1.469,1.469,0,0,1-.084-0.52,1.337,1.337,0,0,1,.167-0.58,2.794,2.794,0,0,1,.745-0.78c0.127-.11.249-0.21,0.352-0.31a1.728,1.728,0,0,0,.139-0.15c0.044-.05.08-0.11,0.118-0.16a3.193,3.193,0,0,0,.3-1.87c-0.012-.19-0.029-0.38-0.049-0.57s-0.04-.4-0.06-0.6c-0.039-.41-0.079-0.83-0.12-1.25s-0.079-.85-0.119-1.29a9.791,9.791,0,0,1-.058-1.4,21.866,21.866,0,0,1,.485-2.64,4.619,4.619,0,0,0,.08-1.12,2.833,2.833,0,0,0-.262-0.99c-0.145-.34-0.327-0.69-0.46-1.09a2.421,2.421,0,0,1-.095-1.3,2.817,2.817,0,0,1,.523-1.06,3.2,3.2,0,0,1,.784-0.73,4.817,4.817,0,0,1,3.227-.32,7.1,7.1,0,0,1,1.937.43,20.05,20.05,0,0,1,2.067.93c0.7,0.36,1.4.72,2.151,1.07,1.213,0.55,2.4,1.05,3.476,1.52s2.044,0.93,2.833,1.36c0.343,0.19.649,0.36,0.922,0.53,1.25-.32,2.868-0.69,4.641-1.05,1.083-.23,2.113-0.43,3.042-0.59a2.285,2.285,0,0,1-.275-0.09,1.678,1.678,0,0,1-.524-0.31,1.177,1.177,0,0,1-.256-0.34,1,1,0,0,1-.083-0.23,0.989,0.989,0,0,1-.02-0.29,0.95,0.95,0,0,1,.239-0.55,1.36,1.36,0,0,1,.446-0.33c0.149-.07.294-0.12,0.43-0.17,0.126-.03.255-0.07,0.385-0.1,0.263-.08.536-0.15,0.816-0.22a6.581,6.581,0,0,1,1.7-.22,3.754,3.754,0,0,1,1.423.34,2.7,2.7,0,0,1,.784.55,0.861,0.861,0,0,1,.141.21c0.267-.09.539-0.17,0.823-0.25,0.75-.21,1.557-0.42,2.413-0.61,1.712-.37,3.615-0.66,5.613-0.89s3.9-.38,5.625-0.53,3.273-.28,4.57-0.42c1.647-.17,2.891-0.34,3.591-0.4a0.28,0.28,0,0,0,.1-0.12,0.208,0.208,0,0,0-.014-0.17,0.415,0.415,0,0,0-.175-0.17l-0.025-.02-0.043-.03c-0.032-.02-0.064-0.05-0.1-0.07-0.065-.05-0.131-0.1-0.2-0.15-0.273-.21-0.571-0.45-0.892-0.7-0.081-.06-0.163-0.13-0.246-0.19q-0.21-.18-0.428-0.36c-0.308-.24-0.572-0.49-0.865-0.75l-0.11-.1-0.028-.03a0.045,0.045,0,0,0,.032-0.01l0.072-.02c0.1-.02.19-0.05,0.287-0.07l0.589-.15c0.2-.05.423-0.1,0.65-0.14,0.172-.03.346-0.05,0.521-0.08,0.535-.08,1.088-0.14,1.655-0.2s1.159-.12,1.768-0.18,1.238-.12,1.88-0.18,1.32-.1,2.013-0.11a13.687,13.687,0,0,1,2.822.26,25.711,25.711,0,0,1,2.506.66,37.99,37.99,0,0,1,4.049,1.54c0.471,0.21.9,0.42,1.277,0.61a34.89,34.89,0,0,1,4.127-.08c1.024,0.04,2.146.12,3.343,0.27s2.47,0.35,3.8.61,2.71,0.6,4.127.99,2.863,0.85,4.336,1.32c2.944,0.95,5.751,1.86,8.269,2.81a67.928,67.928,0,0,1,6.565,2.82c0.455,0.23.882,0.44,1.29,0.67l0.224,0.12a10.859,10.859,0,0,1,1.07.33,7.112,7.112,0,0,1,.919.4,6.063,6.063,0,0,1,1.01.63,4.555,4.555,0,0,1,.957,1c0.069,0.11.13,0.22,0.2,0.32a3.768,3.768,0,0,1,.168.35,1.629,1.629,0,0,1,.14.43,1.047,1.047,0,0,1-.079.65,1.069,1.069,0,0,1-.475.46,2.54,2.54,0,0,1-.254.11c-0.077.02-.151,0.04-0.219,0.06-0.233.05-.469,0.1-0.708,0.16s-0.468.12-.707,0.18-0.474.14-.716,0.21-0.5.16-.75,0.25a7.531,7.531,0,0,0,1.027.22,6.173,6.173,0,0,0,1.77-.01,2.32,2.32,0,0,0,.257-0.04l0.152-.03c0.074-.02.15-0.03,0.225-0.05a1.282,1.282,0,0,1,.832.1,0.78,0.78,0,0,1,.3.28,0.68,0.68,0,0,1,.1.4A0.53,0.53,0,0,1,568.952,2318.2Zm-108.8-7.31h0ZM471,2319.55a2.463,2.463,0,0,1-.6-0.16c-0.227-.09-0.5-0.2-0.788-0.32l-0.964-.39c-0.344-.14-0.725-0.28-1.094-0.44a2.36,2.36,0,0,1-.97-0.69,2.438,2.438,0,0,1-.442-1.18c-0.065-.45-0.076-0.91-0.107-1.35s-0.056-.88-0.083-1.28-0.057-.8-0.083-1.16-0.06-.7-0.059-1a2.506,2.506,0,0,1,.294-1.35c0.173-.28.354-0.38,0.33-0.41a0.173,0.173,0,0,0-.145.04,1.292,1.292,0,0,0-.151.1,1.06,1.06,0,0,0-.176.17,1.683,1.683,0,0,0-.317.59,3.228,3.228,0,0,0-.152.85c-0.022.32-.007,0.66,0,1.03s0.028,0.75.043,1.16,0.037,0.83.057,1.28,0.031,0.9.1,1.39a2.47,2.47,0,0,0,1.687,2.18c0.4,0.16.778,0.28,1.131,0.41,0.225,0.08.917,0.31,0.983,0.33,0.3,0.1.57,0.2,0.821,0.27a2.179,2.179,0,0,0,.671.1,0.952,0.952,0,0,0,.421-0.11,0.181,0.181,0,0,0,.111-0.1C471.505,2319.47,471.33,2319.58,471,2319.55Zm12.514-11.98a0.949,0.949,0,0,1-.349-0.33,0.872,0.872,0,0,1-.1-0.46,0.434,0.434,0,0,0-.023-0.28,0.268,0.268,0,0,0-.278.19,0.764,0.764,0,0,0,.007.76,0.813,0.813,0,0,0,.666.41c0.208,0.01.316-.07,0.306-0.13A0.405,0.405,0,0,0,483.51,2307.57Zm26.753,16.47a16.8,16.8,0,0,0-3.255.25,10.028,10.028,0,0,0,3.278.18,9.691,9.691,0,0,0,3.241-.5A17.262,17.262,0,0,0,510.263,2324.04Zm11.988-21.33c-0.142.02-.289,0.04-0.443,0.07s-0.315.04-.481,0.07c-0.332.05-.69,0.09-1.065,0.13-0.752.08-1.58,0.14-2.452,0.18-1.746.06-3.331,0.02-4.48-.01a8.693,8.693,0,0,0-1.869.01,7.128,7.128,0,0,0,1.849.29,33.881,33.881,0,0,0,4.518.14c0.884-.03,1.725-0.11,2.485-0.21,0.38-.06.741-0.11,1.075-0.18,0.168-.03.33-0.06,0.484-0.09s0.3-.07.444-0.1a6.218,6.218,0,0,0,1.774-.6A11.71,11.71,0,0,0,522.251,2302.71Zm21.694,17.68a20.022,20.022,0,0,0-2.65-.35,15.081,15.081,0,0,0-4.828.48,5.01,5.01,0,0,0-1.859.74,0.161,0.161,0,0,0,.118.01,0.265,0.265,0,0,0-.1.08,0.443,0.443,0,0,0-.109.19,0.437,0.437,0,0,0-.016.13,0.2,0.2,0,0,0,.061.16,0.177,0.177,0,0,0,.1.04,0.184,0.184,0,0,0,.072.01c0.048,0.01.1,0.01,0.145,0.02h0.291c0.023,0,.033.02,0.009,0.02l-0.006.02h0a0.015,0.015,0,0,0-.014-0.02,2.98,2.98,0,0,0-.286.12c-0.05.03-.133,0.09-0.2,0.13l-0.053.04-0.026.02-0.013.01c-0.007,0,0,0,.007.01l0.106,0.07,0.18,0.12c0.036,0.02.072,0.05,0.108,0.07,0.142,0.09.28,0.18,0.412,0.26,0.264,0.16.507,0.3,0.715,0.42a2.572,2.572,0,0,0,.7.3,0.494,0.494,0,0,0,.192.05c0.065,0.01.142,0.02,0.228,0.03a0.5,0.5,0,0,1,.125.01h0.016c0,0.01,0,0,0,0s-0.009.01-.012,0.02a0.38,0.38,0,0,1-.081.04c-0.07.03-.152,0.05-0.22,0.08a0.276,0.276,0,0,0-.15.1,0.08,0.08,0,0,0-.022.04,0.172,0.172,0,0,0-.139.01,1.792,1.792,0,0,0,.781.59c0.128,0.07.27,0.15,0.423,0.24,0.077,0.04.157,0.08,0.239,0.12a1.32,1.32,0,0,0,.289.14,0.961,0.961,0,0,0,.42.05,1.806,1.806,0,0,0,.375-0.11c0.211-.1.407-0.2,0.609-0.32,0.4-.22.761-0.45,1.091-0.65a8.813,8.813,0,0,1,.886-0.47,4,4,0,0,0,.872-0.38,0.308,0.308,0,0,0-.274-0.08,2.5,2.5,0,0,0-.733.1,4.754,4.754,0,0,0-1,.4c-0.359.18-.732,0.4-1.118,0.61-0.192.11-.386,0.22-0.561,0.3a0.876,0.876,0,0,1-.222.08,0.36,0.36,0,0,1-.177-0.01,0.987,0.987,0,0,1-.237-0.09c-0.087-.03-0.17-0.07-0.251-0.1-0.162-.07-0.314-0.13-0.453-0.18-0.3-.11-0.549-0.19-0.715-0.23,0.03-.01.065-0.01,0.112-0.02a0.773,0.773,0,0,0,.24-0.03,0.416,0.416,0,0,0,.164-0.07c0.013-.01.028-0.03,0.039-0.04a0.271,0.271,0,0,0,.04-0.06,0.189,0.189,0,0,0,.021-0.13l0-.02a0.209,0.209,0,0,0-.086-0.11,0.158,0.158,0,0,0-.066-0.02,0.05,0.05,0,0,0-.036-0.01h-0.024a0.719,0.719,0,0,0-.147,0,1.577,1.577,0,0,0-.236.02,0.316,0.316,0,0,0-.21.07c-0.063-.06-0.283-0.2-0.6-0.41-0.2-.13-0.429-0.28-0.685-0.45-0.129-.08-0.264-0.17-0.4-0.27a0.7,0.7,0,0,1-.107-0.07l-0.028-.02h-0.005a0.208,0.208,0,0,1,.023-0.01,1.362,1.362,0,0,1,.254-0.12l0.056-.03,0.072-.02c0.045-.01.1-0.03,0.155-0.04s0.131-.02.2-0.03a1.77,1.77,0,0,1,.225-0.04,0.654,0.654,0,0,1-.113-0.07c-0.061-.03-0.122-0.07-0.182-0.1a0.552,0.552,0,0,0-.2-0.07c-0.038-.01-0.089-0.01-0.132-0.02h-0.144c-0.1.01-.2,0.02-0.3,0.02a0.566,0.566,0,0,1-.128.01,0.123,0.123,0,0,0-.057-0.01h-0.018a0.2,0.2,0,0,1-.017-0.14,0.352,0.352,0,0,1,.062-0.15,1.418,1.418,0,0,1,.107-0.12,0.087,0.087,0,0,0,.014-0.05c0.305-.05.9-0.2,1.724-0.36a19.781,19.781,0,0,1,4.7-.31,24.038,24.038,0,0,1,2.588.31c0.8,0.13,1.514.26,2.118,0.36a6.11,6.11,0,0,1,1.358.36,1.8,1.8,0,0,0,.482.22,0.763,0.763,0,0,0-.373-0.4,4.258,4.258,0,0,0-1.381-.55C545.456,2320.73,544.747,2320.55,543.945,2320.39Zm3.709-5.26a4.764,4.764,0,0,1,.744-1.54,4.223,4.223,0,0,1,.815-0.85,1.191,1.191,0,0,0,.336-0.3c-0.007-.02-0.049-0.01-0.124.02a1.651,1.651,0,0,0-.312.14,3.581,3.581,0,0,0-.966.8,4.578,4.578,0,0,0-.889,1.62,5.2,5.2,0,0,0-.219,1.07,5.4,5.4,0,0,0,.017,1.17,6.716,6.716,0,0,0,.685,2.14,8.609,8.609,0,0,0,1.008,1.52,4.3,4.3,0,0,0,1.218,1.16,10.953,10.953,0,0,0-.962-1.34,9.857,9.857,0,0,1-.891-1.52,6.914,6.914,0,0,1-.613-2.01A5.317,5.317,0,0,1,547.654,2315.13Zm11.658,4.35a0.748,0.748,0,0,0,.341.5,1.093,1.093,0,0,0,.6.15,2.689,2.689,0,0,0,.564-0.06,1.4,1.4,0,0,0,.579-0.27,0.846,0.846,0,0,0,.206-0.26,1.858,1.858,0,0,0,.095-0.25,1.465,1.465,0,0,1,.129-0.34,2.1,2.1,0,0,1,.188-0.26c0.134-.17.261-0.3,0.335-0.41a0.963,0.963,0,0,0,.073-0.12,0.139,0.139,0,0,0,.088-0.08,0.365,0.365,0,0,0-.076.01,0.071,0.071,0,0,0,0-.02,0.241,0.241,0,0,0-.223.05,2.645,2.645,0,0,0-.473.29,2,2,0,0,0-.294.29,1.6,1.6,0,0,0-.232.43c-0.027.06-.052,0.12-0.079,0.17a0.421,0.421,0,0,1-.093.1,0.839,0.839,0,0,1-.342.14,3.791,3.791,0,0,1-.448.06,0.59,0.59,0,0,1-.319-0.05,0.346,0.346,0,0,1-.157-0.16,0.111,0.111,0,0,1-.011-0.07,0.357,0.357,0,0,1,.039-0.11c0.043-.07.112-0.16,0.158-0.23a1.371,1.371,0,0,1,.127-0.16,0.523,0.523,0,0,0,.127-0.15,0.024,0.024,0,0,0,.007-0.02H560.2a0.232,0.232,0,0,0-.233-0.01,0.752,0.752,0,0,0-.235.13,1.7,1.7,0,0,0-.255.21,0.747,0.747,0,0,0-.132.2A0.575,0.575,0,0,0,559.312,2319.48Zm3.847-4.64a1.033,1.033,0,0,0-.229-0.49,1,1,0,0,0-.418-0.27,1.65,1.65,0,0,0-.391-0.11,3.987,3.987,0,0,0-.552-0.07,3.335,3.335,0,0,0-.47-0.07,1.773,1.773,0,0,0-.919.13,1.389,1.389,0,0,0-.4.26,1.934,1.934,0,0,0-.3.33c-0.006.01-.01,0.02-0.016,0.03a1.5,1.5,0,0,0-.266.37,1.424,1.424,0,0,0-.155.85,1.241,1.241,0,0,0,.179.49,1.47,1.47,0,0,0,.385.39,2.28,2.28,0,0,0,1.043.35,5.225,5.225,0,0,0,.56.03,3.029,3.029,0,0,0,.587-0.07,1.826,1.826,0,0,0,1.055-.6,1.3,1.3,0,0,0,.274-0.54,2.553,2.553,0,0,0,.059-0.51A2.131,2.131,0,0,0,563.159,2314.84Zm-1.419,1.68a2.524,2.524,0,0,1-.9.15c-0.051-.01-0.1-0.01-0.151-0.02a1.9,1.9,0,0,1-.736-0.33,1.285,1.285,0,0,1-.177-0.16,0.879,0.879,0,0,1-.078-0.29,2.917,2.917,0,0,1,.039-0.66,1.477,1.477,0,0,1,.175-0.5,1.38,1.38,0,0,1,.455-0.36,2.654,2.654,0,0,1,1.426,0c0.055,0.01.108,0.03,0.159,0.04a1.224,1.224,0,0,1,.229.14,0.648,0.648,0,0,1,.221.26,0.776,0.776,0,0,1,.055.35,2.154,2.154,0,0,1-.1.82A1.053,1.053,0,0,1,561.74,2316.52Zm-0.13-1.54a1.837,1.837,0,0,0-.331-0.13,0.476,0.476,0,0,0-.3.08c0,0.01-.006.01-0.01,0.01a0.2,0.2,0,0,0-.085.03,0.524,0.524,0,0,0-.223.21,0.407,0.407,0,0,0-.061.23h0l0.087,0.2a0.19,0.19,0,0,0,.057.05,0.547,0.547,0,0,0,.306.08l0.107-.03a0.372,0.372,0,0,0,.116-0.02,0.239,0.239,0,0,0,.064-0.03,0.086,0.086,0,0,1,.037-0.02,0.649,0.649,0,0,0,.089-0.08,0.415,0.415,0,0,0,.108-0.17,0.638,0.638,0,0,0,.062-0.08,0.252,0.252,0,0,0,.062-0.16A0.242,0.242,0,0,0,561.61,2314.98Z" transform="translate(-412.5 -2263)"/>
</svg>
