<svg xmlns="http://www.w3.org/2000/svg" width="200" height="100" viewBox="0 0 200 100">
  <path fill="#7099cb" d="M211.124,2280.46h0l0-.03h0S211.123,2280.46,211.124,2280.46Zm6.487,22.33h0s-0.009.01,0,0h0Zm0.026,0.03a0.024,0.024,0,0,1,.007.02,0.145,0.145,0,0,1-.018-0.01,0.046,0.046,0,0,1,0-.03c0.006,0.01.011,0.01,0,.01h0S217.634,2302.81,217.637,2302.82Zm14.349-8.69a2.153,2.153,0,0,1-.1.51,3.239,3.239,0,0,1-.218.49c-0.17.31-.379,0.59-0.542,0.89a7.926,7.926,0,0,0-.466.96c-0.28.69-.5,1.38-0.73,2.01a9.3,9.3,0,0,1-.751,1.64c-0.071.12-.143,0.23-0.215,0.33a1.219,1.219,0,0,1,.185.49,2.177,2.177,0,0,1-.059.86,4.633,4.633,0,0,1-.413,1.04c-0.385.71-.855,1.53-1.384,2.44-0.268.46-.539,0.93-0.846,1.43a8.027,8.027,0,0,1-.512.74,7.431,7.431,0,0,1-.626.71,7.884,7.884,0,0,1-3.028,1.82,8.99,8.99,0,0,1-2.183.44,0.544,0.544,0,0,1,.005.47,0.642,0.642,0,0,1-.114.18,0.381,0.381,0,0,1-.091.07c-0.031.02-.064,0.04-0.1,0.06a1.03,1.03,0,0,1-.46.1c-0.16.01-.321,0-0.477,0.01a2.844,2.844,0,0,0-.5.03,6.4,6.4,0,0,0-2.3.9c-0.411.24-.832,0.52-1.279,0.82a14.458,14.458,0,0,1-1.446.85c-0.1.05-.208,0.1-0.313,0.14,0.117-.02.243-0.04,0.378-0.07,0.39-.08.849-0.19,1.358-0.34s1.066-.33,1.662-0.51,1.171-.34,1.721-0.45a1.8,1.8,0,0,1,.47-0.03,1.215,1.215,0,0,1,.45.14,3.205,3.205,0,0,1,.578.4c0.02,0.02.039,0.03,0.058,0.05a9.431,9.431,0,0,1,1.275-.17c0.458-.05,1-0.08,1.61-0.12,0.305-.01.632-0.02,0.978-0.01a5.744,5.744,0,0,1,1.067.15,5.459,5.459,0,0,1,1.889.85,1.222,1.222,0,0,1,.4.41,1.084,1.084,0,0,1,.1.54c0,0.04,0,.08-0.006.11a3.59,3.59,0,0,1,.969.37,11.4,11.4,0,0,1,1.041.57c0.191,0.11.39,0.24,0.593,0.37a4.5,4.5,0,0,1,.635.47,1.508,1.508,0,0,1,.485.78,1.541,1.541,0,0,1-.07.84c-0.019.05-.039,0.11-0.06,0.16a12.517,12.517,0,0,1,.968,2.99,1.308,1.308,0,0,1,.042.32,0.7,0.7,0,0,1-.039.23,0.569,0.569,0,0,1-.129.21q-0.033.03-.072,0.06a0.093,0.093,0,0,1-.06.02l-0.028-.01h0s0,0.03,0,.03,0,0.03,0,.06a0.892,0.892,0,0,0,.026.19c0.01,0.04.019,0.09,0.029,0.13s0.02,0.1.026,0.15a1.753,1.753,0,0,1,.015.28,1.8,1.8,0,0,1-.275.9,1.376,1.376,0,0,1-.426.44,0.22,0.22,0,0,1-.227.05,2.241,2.241,0,0,1,.262-0.6,2.016,2.016,0,0,1-.626-0.47,6.041,6.041,0,0,1-.637-0.8c-0.214-.3-0.442-0.65-0.673-1.01a3.56,3.56,0,0,1-.325-0.6,2.8,2.8,0,0,1-.151-0.64c-0.026-.23-0.041-0.43-0.052-0.62a5.136,5.136,0,0,1-.944-0.24,11.687,11.687,0,0,1-1.359-.61c-0.493-.25-1.024-0.53-1.581-0.84-0.931-.51-1.781-1.01-2.432-1.45-0.492-.05-1.139-0.12-1.912-0.22-0.227-.03-0.465-0.06-0.712-0.09a2.394,2.394,0,0,0-.706-0.01,4.443,4.443,0,0,0-.763.2c-0.284.08-.579,0.16-0.885,0.22a19.923,19.923,0,0,1-3.7.29c-0.653.18-1.349,0.33-2.07,0.47-0.987.2-1.922,0.37-2.76,0.55a11.987,11.987,0,0,1-2.314.41,3.563,3.563,0,0,1-1.038-.13c-0.049.02-.1,0.04-0.153,0.06a5.173,5.173,0,0,0-.507.27,2.8,2.8,0,0,0-.285.65c0.21,0.02.45,0.05,0.692,0.09s0.468,0.08.679,0.12c1.288-.39,3.769-1.01,6.635-1.65,1.056-.23,2.063-0.45,2.981-0.63,0.46-.1.9-0.18,1.305-0.26a2.235,2.235,0,0,1,1.281,0,0.739,0.739,0,0,1,.288.19,0.763,0.763,0,0,1,.182.27,1.287,1.287,0,0,1,.058.52v0.02a3.683,3.683,0,0,1,.617-0.05,2.491,2.491,0,0,1,1.549.53,1.767,1.767,0,0,1,.59.85,3.454,3.454,0,0,1,.109.51c0.023,0.15.046,0.31,0.069,0.47s0.044,0.32.066,0.48,0.044,0.31.057,0.48a1.769,1.769,0,0,1-.029.53,1.487,1.487,0,0,1-.2.49,2.873,2.873,0,0,1-.288.37c0.038,0.15.078,0.33,0.118,0.53,0.069,0.35.14,0.76,0.21,1.22q0.048,0.345.1,0.72c0.031,0.26.071,0.5,0.089,0.8a1.768,1.768,0,0,1-.171.93,1.293,1.293,0,0,1-.3.36,3.478,3.478,0,0,1-.292.24c-0.25.19-.485,0.37-0.7,0.52-0.045.07-.09,0.14-0.137,0.21-0.079.12-.174,0.23-0.266,0.35a8.191,8.191,0,0,1-.635.74,11.411,11.411,0,0,1-1.713,1.44,11.181,11.181,0,0,1-1.985,1.02,8.06,8.06,0,0,1-.927.3c-0.148.04-.289,0.08-0.428,0.11s-0.272.05-.4,0.08a6.691,6.691,0,0,1-.693.08c-0.1.01-.2,0.02-0.285,0.02H212.1a0.722,0.722,0,0,1-.451-0.08,0.865,0.865,0,0,1,.515-0.19,0.732,0.732,0,0,1,.021-0.09,2.6,2.6,0,0,1,.387-0.8,3.8,3.8,0,0,1,.958-0.9c0.4-.27.847-0.5,1.245-0.81s0.773-.65,1.118-0.97a11.269,11.269,0,0,1,.966-0.8,3.64,3.64,0,0,1,.666-0.4,2.189,2.189,0,0,0,.133.19,1.976,1.976,0,0,0,.7.55,1.569,1.569,0,0,0,1.605-.17,0.859,0.859,0,0,0,.295-0.4,0.182,0.182,0,0,0-.018-0.21,1.976,1.976,0,0,0-.515.23,1.79,1.79,0,0,1-.5.09,1.571,1.571,0,0,1-.594-0.12,2.678,2.678,0,0,1-.911-0.79c-0.056-.07-0.107-0.14-0.153-0.2-0.015-.1-0.031-0.22-0.047-0.34-0.055-.41-0.113-0.9-0.231-1.41a5.829,5.829,0,0,0-.238-0.77c-0.1-.26-0.24-0.53-0.375-0.82a4.12,4.12,0,0,1-.32-0.95,2.1,2.1,0,0,1,.046-1,1.731,1.731,0,0,1,.094-0.22,0.879,0.879,0,0,1,.077-0.14,3.039,3.039,0,0,0-.325-0.04,8.12,8.12,0,0,0-.856,0,13.96,13.96,0,0,0-2.231.39c-0.843.2-1.794,0.41-2.793,0.57s-1.967.26-2.831,0.33a16.921,16.921,0,0,0-2.252.3,6.225,6.225,0,0,0-.839.24c0.938,0.11,2,.21,3.115.28,0.977,0.06,1.911.09,2.761,0.1,0.426,0,.824,0,1.211-0.01a2.114,2.114,0,0,1,.608.07,1,1,0,0,1,.558.31,0.841,0.841,0,0,1,.159.28,1.154,1.154,0,0,1,.055.26c0.014,0.16.015,0.28,0.02,0.41,0.039,0.04.083,0.08,0.138,0.13a2.172,2.172,0,0,1,.246.25,0.866,0.866,0,0,1,.168.46,2.16,2.16,0,0,1-.287,1.01,10.077,10.077,0,0,1-.554,1.05,5.6,5.6,0,0,1-.392.56,2.479,2.479,0,0,0-.183.25,1.89,1.89,0,0,0-.138.27c-0.082.19-.166,0.44-0.279,0.67a6.6,6.6,0,0,1-.379.7,16.084,16.084,0,0,1-.94,1.31,9.885,9.885,0,0,1-1.071,1.24,7.821,7.821,0,0,1-1.239.91c-0.814.49-1.546,0.92-2.168,1.27a8.485,8.485,0,0,1-2.083,1.03,1.388,1.388,0,0,1,.508-0.47,1.8,1.8,0,0,1,.015-0.31c0.011-.1.024-0.23,0.05-0.38a2.179,2.179,0,0,1,.152-0.53,1.255,1.255,0,0,1,.37-0.5,1.056,1.056,0,0,1,.221-0.14c0.153-.18.335-0.36,0.52-0.54,0.157-.15.328-0.3,0.523-0.46a7.052,7.052,0,0,1,.62-0.41,1.992,1.992,0,0,0,.488-0.4l0.051-.06c0.046,0.04.095,0.08,0.15,0.12a1.175,1.175,0,0,0,.762.19,0.294,0.294,0,0,0,.307-0.22,0.4,0.4,0,0,0-.243-0.24c-0.136-.07-0.3-0.16-0.476-0.27-0.04-.03-0.079-0.05-0.117-0.08,0.039-.05.077-0.11,0.114-0.16a1.749,1.749,0,0,1,.047-0.82,4.316,4.316,0,0,1,.549-1.12,7.528,7.528,0,0,0,.656-1.22,4.144,4.144,0,0,0,.269-0.9c-0.724-.15-1.743-0.4-2.878-0.65-1.377-.3-2.6-0.55-3.3-0.73a3.555,3.555,0,0,1-.836.27,1.7,1.7,0,0,1-.74-0.03,2.081,2.081,0,0,1-.694-0.34,10.227,10.227,0,0,0-.993-0.74l-0.052-.03c0.018-.04.036-0.08,0.056-0.12,0.054-.12.126-0.26,0.211-0.41a4.362,4.362,0,0,1,.318-0.44,3.369,3.369,0,0,1,.39-0.38,3.3,3.3,0,0,1,.368-0.27,0.672,0.672,0,0,0,.374-0.34,0.486,0.486,0,0,0-.538-0.09,1.727,1.727,0,0,0-.539.21,2.207,2.207,0,0,0-.544.45,2.432,2.432,0,0,0-.365.61,1.735,1.735,0,0,0-.119.56c0,0.02,0,.04,0,0.06a4.119,4.119,0,0,1-.508-0.18,1.517,1.517,0,0,1-.559-0.4c-0.148.04-.3,0.07-0.452,0.11a24.74,24.74,0,0,1-2.976.42,22.942,22.942,0,0,1-3-.02c-0.912-.06-1.731-0.12-2.42-0.18-0.443-.04-0.83-0.08-1.153-0.11a8.176,8.176,0,0,1-.987.2c-0.7.11-1.435,0.2-2.2,0.3s-1.553.2-2.363,0.28-1.6.18-2.4,0.18a13.009,13.009,0,0,1-2.247-.25,30.933,30.933,0,0,0-3.681-.47c-0.939-.07-1.721-0.09-2.3-0.1a13.166,13.166,0,0,1-1.149,3.06,3.543,3.543,0,0,1-.411.67,3.157,3.157,0,0,1-.529.53,4.7,4.7,0,0,1-.413.27c0.051,0.16.112,0.36,0.19,0.59,0.1,0.31.235,0.68,0.385,1.1s0.314,0.88.448,1.39a6.18,6.18,0,0,1,.221,1.49c0,0.47-.049.87-0.063,1.19a4.749,4.749,0,0,0,.015.75,0.431,0.431,0,0,1-.01.31,0.324,0.324,0,0,1-.229-0.23,2.266,2.266,0,0,1-.225-0.77,7.921,7.921,0,0,1-.75-0.91,17.011,17.011,0,0,1-1.753-3.1,9.093,9.093,0,0,1-.646-1.88c-0.019-.1-0.032-0.19-0.044-0.29a2.539,2.539,0,0,0,.316.13,1.878,1.878,0,0,0,.9.04,0.365,0.365,0,0,0,.345-0.24,0.424,0.424,0,0,0-.337-0.21c-0.195-.06-0.45-0.13-0.727-0.21-0.137-.04-0.268-0.08-0.39-0.11a1.555,1.555,0,0,0-.171-0.05,0.016,0.016,0,0,1-.017-0.01,2.373,2.373,0,0,1-.218-0.44,1.279,1.279,0,0,1-.071-0.37,1.662,1.662,0,0,1,.029-0.37c0.045-.23.1-0.42,0.163-0.64a8.153,8.153,0,0,1,.433-1.19,3.873,3.873,0,0,1,.572-0.89,0.7,0.7,0,0,1,.114-0.12,0.3,0.3,0,0,1,.052.05,4.335,4.335,0,0,0,1.236.77,5.266,5.266,0,0,0,.77.24,1.657,1.657,0,0,0,.738-0.01,0.655,0.655,0,0,0,.433-0.33c0.052-.12.021-0.2-0.017-0.21a0.275,0.275,0,0,0-.174.05,0.679,0.679,0,0,1-.311.04,1.853,1.853,0,0,1-.508-0.11c-0.213-.08-0.445-0.17-0.686-0.27-0.651-.26-1.2-0.55-1.521-0.67a2.678,2.678,0,0,1-.006-0.38,4.765,4.765,0,0,1,.1-0.67c0.046-.21.09-0.42,0.161-0.64a1.869,1.869,0,0,1,.317-0.61,1.639,1.639,0,0,1,.985-0.6,1.6,1.6,0,0,1,.742.02c0.01,0,.017.01,0.026,0.01s0.006-.01.01-0.01a1.578,1.578,0,0,1,.794-0.54,2.984,2.984,0,0,1,1.244-.08c0.226,0.03.453,0.07,0.689,0.12s0.479,0.11.732,0.17c0.5,0.12,1.029.28,1.579,0.45a34.313,34.313,0,0,0,3.554,1,9.279,9.279,0,0,0,1.858.2c0.115,0,.229-0.01.342-0.01l0.018-.02a0.461,0.461,0,0,0,.065-0.07,0.516,0.516,0,0,0,.063-0.11l0.009-.03c-0.381-.04-0.762-0.1-1.14-0.16-1.862-.32-3.644-0.63-5.244-1.04-0.8-.2-1.554-0.42-2.249-0.66-0.348-.12-0.681-0.25-1-0.38s-0.609-.24-0.89-0.33a3.033,3.033,0,0,0-.812-0.15c-0.266-.01-0.529,0-0.783-0.01a2.74,2.74,0,0,1-.719-0.11,1.631,1.631,0,0,1-.55-0.3,1.821,1.821,0,0,1-.317-0.35c-0.345.05-.715,0.09-1.1,0.11a12.813,12.813,0,0,1-2.478-.06,11.94,11.94,0,0,1-2.444,1.07,11.624,11.624,0,0,1-3.57.53c-0.407,0-.739-0.03-0.986-0.05a1.915,1.915,0,0,0-.125.4,4.305,4.305,0,0,1-.147.7,2.49,2.49,0,0,1-.372.65,6.331,6.331,0,0,1-.413.51,1.469,1.469,0,0,1-1.08.52,1.42,1.42,0,0,0-.319.07,0.78,0.78,0,0,0-.141.1c0,0.05,0,.09-0.006.13a0.515,0.515,0,0,1-.146.47,0.792,0.792,0,0,1-.179-0.44,2.25,2.25,0,0,1-.094-0.55,1.15,1.15,0,0,1,.06-0.39,1.02,1.02,0,0,1,.094-0.21,1.106,1.106,0,0,1,.069-0.11l0.04-.04h0c0-.01.012-0.02,0.006-0.02a0.078,0.078,0,0,1-.025-0.02h0l-0.01-.02c-0.007-.02-0.014-0.03-0.02-0.05a0.934,0.934,0,0,1-.028-0.1,0.907,0.907,0,0,1-.016-0.22,1.216,1.216,0,0,1,.084-0.36c0.087-.21.171-0.36,0.26-0.54a10.639,10.639,0,0,1,.848-1.44,1.563,1.563,0,0,0,.262.29,1.645,1.645,0,0,0,.635.33,1.962,1.962,0,0,0,.539.09,0.534,0.534,0,0,0,.506-0.13,0.542,0.542,0,0,0-.4-0.31,3.754,3.754,0,0,1-.855-0.47,1.149,1.149,0,0,1-.269-0.33,0.13,0.13,0,0,0,.036-0.04c0.142-.15.273-0.27,0.388-0.37a1.653,1.653,0,0,1,.5-0.86,3.387,3.387,0,0,1,.626-0.45c0.219-.12.436-0.23,0.665-0.35,0.458-.24.884-0.46,1.306-0.65a3.8,3.8,0,0,1,1.213-.34h0.072a1.216,1.216,0,0,0-.1.28,1.615,1.615,0,0,0,.027.77,1.991,1.991,0,0,0,.465.81,2.521,2.521,0,0,0,.714.54,4.088,4.088,0,0,0,.621.27,1.132,1.132,0,0,0,.612.16,0.643,0.643,0,0,0-.386-0.55c-0.156-.13-0.35-0.25-0.539-0.38a3.506,3.506,0,0,1-.548-0.47,2.153,2.153,0,0,1-.377-0.57,1.828,1.828,0,0,1-.136-0.54c-0.021-.21,0-0.38,0-0.49,0.06-.06.125-0.12,0.2-0.18a1.709,1.709,0,0,1,.476-0.27,2.892,2.892,0,0,1,1.087-.18,7.076,7.076,0,0,1,1.117.09c0.748,0.13,1.418.31,2.038,0.46s1.172,0.3,1.636.43c0.184,0.05.35,0.1,0.5,0.15a0.567,0.567,0,0,0-.157.07,1.128,1.128,0,0,0-.4.95,4.158,4.158,0,0,0,.145.8,0.576,0.576,0,0,0,.153.36c0.076,0.03.226-.07,0.3-0.33a2.577,2.577,0,0,0,.044-0.86,1.579,1.579,0,0,1,.089-0.6,2.639,2.639,0,0,0,.136-0.3c0.067,0.03.131,0.05,0.189,0.07a0.738,0.738,0,0,1-.017-0.1,1.038,1.038,0,0,1,.037-0.39,16.788,16.788,0,0,1-1.914-.37c-0.426-.1-0.853-0.22-1.287-0.33-0.434-.13-0.876-0.26-1.322-0.39a13.086,13.086,0,0,1-6.205-4.21c-0.453-.56-0.829-1.11-1.169-1.61-0.6-.88-1.087-1.62-1.442-2.17-0.369-.27-0.775-0.59-1.206-0.96-0.535-.46-1.105-0.99-1.673-1.57s-1.074-1.18-1.515-1.73-0.811-1.07-1.1-1.52a4.1,4.1,0,0,1-.8-1.54,3.373,3.373,0,0,1,.881.93,7.092,7.092,0,0,1,1.693.62,16.542,16.542,0,0,1,5.423,4.23,3.835,3.835,0,0,1,1.484.75,11.48,11.48,0,0,1,1.028.94c0.345,0.35.712,0.72,1.108,1.1a29.7,29.7,0,0,0,2.7,2.29,20.31,20.31,0,0,0,3.006,1.84c0.117,0.06.234,0.11,0.349,0.17a2.572,2.572,0,0,0,.405-0.33c-0.093-.12-0.186-0.25-0.281-0.38q-0.332-.45-0.6-0.87a0.1,0.1,0,0,0,.11-0.04,0.472,0.472,0,0,0-.1-0.39,4.877,4.877,0,0,1-.29-0.68,5.087,5.087,0,0,1-.163-0.73c-0.007-.05-0.015-0.09-0.023-0.13a0.6,0.6,0,0,0,.312-0.05c0.16-.06.207-0.15,0.186-0.19a0.409,0.409,0,0,0-.224-0.05,0.884,0.884,0,0,1-.428-0.2,0.868,0.868,0,0,1-.2-0.24,1.114,1.114,0,0,1-.129-0.35,3.989,3.989,0,0,1-.046-0.97,5.6,5.6,0,0,1,.123-0.99,3.23,3.23,0,0,1,.26-0.75,2.133,2.133,0,0,1,.147-0.26,2.24,2.24,0,0,0,.27.16,1.916,1.916,0,0,0,.691.17,0.318,0.318,0,0,0,.27-0.06,0.325,0.325,0,0,0-.2-0.18,5.017,5.017,0,0,1-.533-0.33,1.008,1.008,0,0,1-.257-0.26,0.546,0.546,0,0,1-.1-0.32,1.7,1.7,0,0,1,.1-0.47c0.06-.19.121-0.38,0.185-0.59,0.5-1.61.865-2.94,0.7-3s-0.807,1.17-1.313,2.81c-0.064.21-.121,0.41-0.175,0.61a1.862,1.862,0,0,0-.088.67,1.085,1.085,0,0,0,.2.53,1.764,1.764,0,0,0-.274.26,2.709,2.709,0,0,0-.453.85,4.163,4.163,0,0,0-.195,1.12,3.3,3.3,0,0,0,.119,1.16,1.475,1.475,0,0,0,.264.5,1.179,1.179,0,0,0,.4.32c0.014,0,.028.01,0.042,0.01a0.97,0.97,0,0,0-.079.17,1.517,1.517,0,0,0,0,.97c0.012,0.04.025,0.07,0.039,0.11a12.852,12.852,0,0,1-1.738-1.19,13.452,13.452,0,0,1-1.378-1.27,12.248,12.248,0,0,1-1.247-1.59,14.1,14.1,0,0,1-1.609-3.52,30.57,30.57,0,0,1-.774-3.03,11.56,11.56,0,0,1-.241-2.11,3.9,3.9,0,0,1,.044-0.66,1.217,1.217,0,0,1,.2-0.11,1.051,1.051,0,0,1,.177-0.08l0.094-.03a0.867,0.867,0,0,1,.091-0.01,0.433,0.433,0,0,1,.123-0.02l0.36-.03a4.273,4.273,0,0,1-.077-0.51,0.618,0.618,0,0,1,.009-0.14,1.207,1.207,0,0,1,.075-0.27,0.587,0.587,0,0,0,.106-0.34c-0.027-.07-0.2-0.09-0.422.06a0.842,0.842,0,0,0-.294.36,0.932,0.932,0,0,0-.084.28h-0.012a0.013,0.013,0,0,1,0-.01,0.024,0.024,0,0,1-.016.01l-0.04.01c-0.053.02-.1,0.04-0.153,0.06a1.562,1.562,0,0,0-.261.16c-0.027.02-.051,0.05-0.075,0.07a11.077,11.077,0,0,1-.421-1.2,17.279,17.279,0,0,1-.47-2.33c-0.112-.83-0.186-1.62-0.233-2.35a10.892,10.892,0,0,1,.034-1.94,5.215,5.215,0,0,1,.3-1.29,0.682,0.682,0,0,1,.257-0.42,6.3,6.3,0,0,1-.091,1.29,3.968,3.968,0,0,1,.67.89,6.851,6.851,0,0,1,.578,1.27,12.416,12.416,0,0,1,.418,1.64,32.033,32.033,0,0,1,.516,3.69c0.143,0.12.3,0.25,0.463,0.4a11.271,11.271,0,0,1,1.434,1.45c0-.02.009-0.04,0.013-0.06l-0.031-.09a3.242,3.242,0,0,1-.162-1.02,3.628,3.628,0,0,1,.55-1.89,3.869,3.869,0,0,1,1.087-1.15,3.728,3.728,0,0,1,.93-0.49c0.068-.02.127-0.04,0.179-0.05a1.906,1.906,0,0,1-.047-0.45,1.651,1.651,0,0,1,.093-0.52,1.614,1.614,0,0,1,.219-0.42c0.081-.12.153-0.21,0.233-0.31a1.255,1.255,0,0,1,.284-0.27,0.68,0.68,0,0,1,.343-0.12,0.274,0.274,0,0,1,.091.01,6.154,6.154,0,0,1,.4-1.41,6.951,6.951,0,0,1,.364-0.72c0.14-.23.3-0.46,0.461-0.68,0.332-.44.671-0.83,0.991-1.22s0.638-.75.936-1.1,0.584-.69.88-1a5.547,5.547,0,0,1,.908-0.77,2.915,2.915,0,0,1,1.646-.54,1.2,1.2,0,0,1,.287.03l0.028-.03a6.7,6.7,0,0,1,2.031-1.29c0.761-.36,1.579-0.74,2.464-1.09a18.156,18.156,0,0,1,2.864-.91,11.552,11.552,0,0,1,3.245-.29,8.667,8.667,0,0,1,2.444.5,7.046,7.046,0,0,1,1.1.51,5.138,5.138,0,0,1,.5.31c0.084,0.06.155,0.1,0.247,0.17a1.167,1.167,0,0,1,.146.14,0.748,0.748,0,0,1,.134.23,0.606,0.606,0,0,1-.1.55,0.833,0.833,0,0,1-.386.28,0.866,0.866,0,0,1-.449.02,1.486,1.486,0,0,1-.344-0.13c-0.1-.05-0.186-0.1-0.265-0.14a1.233,1.233,0,0,0-.23-0.11,2.01,2.01,0,0,0-.474-0.15,4.028,4.028,0,0,0-1.949.2,17.318,17.318,0,0,0-1.725.68c-0.538.23-1.035,0.44-1.487,0.64l-1.213.51c-0.08.03-.156,0.07-0.228,0.1-0.056.1-.122,0.21-0.2,0.34a14.279,14.279,0,0,0-.807,1.44h0.016a0.909,0.909,0,0,0,.3-0.07,6,6,0,0,0,.9-0.38c0.32-.17.652-0.43,1.093-0.66a2.864,2.864,0,0,1,.708-0.25,1.707,1.707,0,0,1,.746.04,1.227,1.227,0,0,1,.573.36,1.264,1.264,0,0,1,.2-0.13,1.662,1.662,0,0,1,.83-0.19,1.24,1.24,0,0,1,.841.37,1.162,1.162,0,0,1,.126.17,1.885,1.885,0,0,0,.176-0.07,2.6,2.6,0,0,1,1.849.1,1.365,1.365,0,0,1,.37.24,0.7,0.7,0,0,1,.2.52,0.871,0.871,0,0,1-.225.51,1.681,1.681,0,0,1-.393.32,1.765,1.765,0,0,1-.232.11,2.322,2.322,0,0,1-.229.08c-0.152.05-.307,0.09-0.464,0.13-0.314.08-.634,0.14-0.951,0.22a5.719,5.719,0,0,0-.943.3,25.089,25.089,0,0,0-3.9,2.3c-1.364.89-2.668,1.73-3.859,2.49q-0.462.3-.9,0.57l-0.017.03a8.363,8.363,0,0,1-.9,1.26c-0.137.17-.288,0.33-0.445,0.49,0.351-.24.783-0.51,1.291-0.81,0.377-.22.793-0.46,1.246-0.7s0.959-.48,1.482-0.74a15.419,15.419,0,0,1,3.65-1.09c0.334-.05.664-0.1,0.991-0.14s0.647-.05.962-0.08c0.631-.05,1.233-0.08,1.808-0.12a9.459,9.459,0,0,1,1.683,0,3.3,3.3,0,0,1,.777.2c0.2,0.08.378,0.18,0.54,0.26a0.546,0.546,0,0,1-.007-0.32,0.686,0.686,0,0,1,.159-0.28,0.853,0.853,0,0,1,.322-0.23,1.442,1.442,0,0,1,.492-0.11,0.622,0.622,0,0,1,.406.13,0.5,0.5,0,0,1,.181.38,0.533,0.533,0,0,1-.071.27,0.313,0.313,0,0,1,.1.05,0.287,0.287,0,0,0,.045.04,1.4,1.4,0,0,1,.138-0.1,1.564,1.564,0,0,1,.405-0.23,0.449,0.449,0,0,1,.041-0.09,0.761,0.761,0,0,1,.577-0.33c0.154-.01.305,0.02,0.425,0.01a1.228,1.228,0,0,0,.344-0.07,6.058,6.058,0,0,1,.416-1.65,3.422,3.422,0,0,1,.715-1.61,2.238,2.238,0,0,1-.1,1.81,4.061,4.061,0,0,1-.693,1.34h0.007a1.218,1.218,0,0,1,.343-0.05,0.959,0.959,0,0,1,.395.07,0.529,0.529,0,0,1,.109.05h0a0.676,0.676,0,0,1,.314-0.07,2.017,2.017,0,0,1,.45.04,0.972,0.972,0,0,0,.162.01c0.053,0,.113-0.01.179-0.01a3.2,3.2,0,0,1,.458-0.04c0.105-.01.212,0,0.319,0a5.555,5.555,0,0,1-.567-0.57,3.818,3.818,0,0,1-.7-1.19,0.605,0.605,0,0,1-.027-0.6,0.742,0.742,0,0,1,.429.39c0.2,0.26.472,0.6,0.792,0.98s0.619,0.73.818,1.01c0.033,0.04.062,0.08,0.089,0.12a3.99,3.99,0,0,1,.788.33,1.215,1.215,0,0,1,.175.1v-0.01a0.5,0.5,0,0,1,.181-0.38,0.62,0.62,0,0,1,.406-0.13,1.442,1.442,0,0,1,.492.11,0.853,0.853,0,0,1,.322.23,0.686,0.686,0,0,1,.159.28,0.636,0.636,0,0,1,.02.16c0.1-.04.21-0.07,0.315-0.11a4.329,4.329,0,0,1,1.117-.27,3.223,3.223,0,0,1,1.009.09,5.419,5.419,0,0,1,1.311.51c0.007,0,.012.01,0.019,0.01a0.491,0.491,0,0,0-.2.47,0.476,0.476,0,0,0,.3.46,0.4,0.4,0,0,0,.338-0.5,0.554,0.554,0,0,0-.168-0.38c0.086-.03.194-0.06,0.331-0.1a6.442,6.442,0,0,1,1.561-.23,3.771,3.771,0,0,1,1.121.12,3.365,3.365,0,0,1,.6.22,1.724,1.724,0,0,0,.516.18c0.171,0.03.388,0.02,0.631,0.04a4.535,4.535,0,0,1,.723.09,6.088,6.088,0,0,1,1.447.49,6.011,6.011,0,0,1,1.259.85,6.124,6.124,0,0,0,.516.42,2.4,2.4,0,0,0,.517.3c0.362,0.17.754,0.27,1.124,0.41a5.775,5.775,0,0,1,.855.38c-0.114-.19-0.229-0.38-0.347-0.57a15.593,15.593,0,0,0-2.322-3.06,14.653,14.653,0,0,0-3.088-2.28,25.674,25.674,0,0,0-2.862-1.38q-0.317-.135-0.6-0.24a5.934,5.934,0,0,1-.547-0.25,2.415,2.415,0,0,1-.789-0.59,1.132,1.132,0,0,1-.178-0.27,0.019,0.019,0,0,1-.019-0.01,0.463,0.463,0,0,1-.23-0.23,0.48,0.48,0,0,1-.036-0.28,0.424,0.424,0,0,1,.071-0.18,0.56,0.56,0,0,1,.076-0.08,0.44,0.44,0,0,1,.05-0.03,0.114,0.114,0,0,1,.049-0.03,0.786,0.786,0,0,1,.351-0.04,2.446,2.446,0,0,1,.267.01c0.094,0,.19.01,0.29,0.01s0.2,0.01.187,0.01,0-.01,0-0.01l0.029-.02c0.029-.02.075-0.07,0.146-0.12a1.036,1.036,0,0,1,.443-0.16,1.249,1.249,0,0,1,.644.06,2.361,2.361,0,0,1,.483.23,1.711,1.711,0,0,0,.142.1,0.612,0.612,0,0,1,.154-0.14,1.031,1.031,0,0,1,.418-0.17,1.145,1.145,0,0,1,.617.07,1.271,1.271,0,0,1,.317.19c0.092,0.08.17,0.16,0.244,0.22a0.742,0.742,0,0,0,.2.1h0.063a0.1,0.1,0,0,1,.026-0.02c0.02-.02.057-0.07,0.119-0.13a1.009,1.009,0,0,1,.223-0.16,1.212,1.212,0,0,1,.519-0.15,1.57,1.57,0,0,1,.528.06,2.3,2.3,0,0,1,.464.21,5.843,5.843,0,0,1,.727.54c0.188,0.16.361,0.32,0.524,0.48a3.585,3.585,0,0,1,.4-0.15,3.61,3.61,0,0,0,.43-0.16,3.925,3.925,0,0,1,.027.47,0.739,0.739,0,0,1-.023.18,0.256,0.256,0,0,0-.012.05,0.028,0.028,0,0,1-.006.02,0.038,0.038,0,0,1-.037.03,0.068,0.068,0,0,1-.062,0,0.057,0.057,0,0,1-.032-0.02,0.1,0.1,0,0,1-.036-0.04,0.474,0.474,0,0,1-.072-0.23,0.363,0.363,0,0,0-.076-0.28,0.3,0.3,0,0,0-.195.25,0.654,0.654,0,0,0-.021.4,0.632,0.632,0,0,0,.05.13,0.708,0.708,0,0,0,.1.13,0.555,0.555,0,0,0,.332.17,0.532,0.532,0,0,0,.358-0.1,0.644,0.644,0,0,0,.144-0.15,0.926,0.926,0,0,0,.09-0.16,1.354,1.354,0,0,0,.081-0.3c0.006-.01.008-0.01,0.012-0.01h0.044l0.036-.01,0.072-.03a0.652,0.652,0,0,0,.136-0.05,4.409,4.409,0,0,0,.444-0.28,3.309,3.309,0,0,1,.9-0.48,2.657,2.657,0,0,1,.432-0.13,3.478,3.478,0,0,1,.375-0.06,0.422,0.422,0,0,1,.389.13,0.731,0.731,0,0,1,.049.07,0.153,0.153,0,0,0-.087.11,0.393,0.393,0,0,0,.327.24,2.6,2.6,0,0,0,.372.1l0.11,0.03h0.028l0.04,0.01c0.038,0,.075.01,0.114,0.01,0.153,0.02.32,0.04,0.485,0.05,0.006-.08.012-0.17,0.018-0.26a2.007,2.007,0,0,1,.032-0.26c0.01-.03.016-0.06,0.028-0.09a1.428,1.428,0,0,1,.074-0.16,1.481,1.481,0,0,1,.19-0.26,0.68,0.68,0,0,0,.24-0.33c-0.007-.09-0.193-0.16-0.478-0.06a1.163,1.163,0,0,0-.667.72,0.129,0.129,0,0,0-.006.02h0a0.034,0.034,0,0,1,0,.02l0,0.02a0.051,0.051,0,0,1-.017.04h-0.028c-0.038,0-.075-0.03-0.112-0.03a2.45,2.45,0,0,0-.384,0,0.263,0.263,0,0,0-.089.02,0.339,0.339,0,0,0,0-.09,0.557,0.557,0,0,0-.171-0.32,0.783,0.783,0,0,0-.422-0.18,1.923,1.923,0,0,0-.48-0.01,2.562,2.562,0,0,0-.529.08,3.256,3.256,0,0,0-1.106.52,3.489,3.489,0,0,1-.356.24c-0.026.01-.052,0.03-0.076,0.04s-0.024.01-.036,0.01l-0.017.01h-0.042a0.759,0.759,0,0,1-.221.01h-0.1c0.088-.04.179-0.09,0.272-0.13,0-.04.006-0.07,0.009-0.1a4.9,4.9,0,0,0-.014-1.19,2.674,2.674,0,0,0,.148-0.96,5.1,5.1,0,0,0-.129-1.17,5.422,5.422,0,0,0-.2-0.68c-0.02-.06-0.044-0.11-0.068-0.17l-0.04-.09-0.025-.05-0.02-.01h0s0.1,0.03.139,0.04a1.289,1.289,0,0,1,.2.02c0.12,0.01.245,0.03,0.376,0.03a1.671,1.671,0,0,0,.389-0.02,3.393,3.393,0,0,0,.645-0.15c0.186-.05.352-0.09,0.5-0.12a1.6,1.6,0,0,1,.688.04,0.586,0.586,0,0,0,.284.08c0.032-.02.01-0.15-0.155-0.3a1.335,1.335,0,0,0-.844-0.27c-0.379-.01-0.786.11-1.174,0.14a2.853,2.853,0,0,1-.617-0.06c-0.062-.01-0.124-0.01-0.186-0.02a2.334,2.334,0,0,0-.253-0.03,2.085,2.085,0,0,0-.358.02,1.76,1.76,0,0,0-.322.07c-0.076.02-.152,0.03-0.228,0.05,0.116,0.23.228,0.45,0.335,0.67l0.04,0.08,0.021,0.05,0.034,0.07c0.023,0.05.044,0.11,0.064,0.16a5.748,5.748,0,0,1,.214.6,8.336,8.336,0,0,1,.249,1.05c0,0.03.008,0.05,0.012,0.08a0.66,0.66,0,0,0-.057-0.1,6.469,6.469,0,0,0-1.99-1.91,13.887,13.887,0,0,0-3.217-1.74,7.123,7.123,0,0,0-1.413-.35l-0.314-.03c-0.1-.01-0.2-0.01-0.294-0.02s-0.18,0-.309-0.01a0.554,0.554,0,0,1-.342-0.17,0.407,0.407,0,0,1-.092-0.32,0.52,0.52,0,0,1,.119-0.26,0.544,0.544,0,0,1,.353-0.19,0.143,0.143,0,0,1,.062-0.01c0.021-.01.043-0.03,0.066-0.04a1.719,1.719,0,0,1,.375-0.18c0.133-.04.28-0.08,0.44-0.13a8.8,8.8,0,0,1,1.1-.21,9.5,9.5,0,0,1,2.924.1,12.671,12.671,0,0,1,3.363,1.2,14.228,14.228,0,0,1,2.992,1.93,9.079,9.079,0,0,1,1.1,1.12,7.634,7.634,0,0,1,.755,1.15,5.592,5.592,0,0,1,.278.61,1.151,1.151,0,0,1,.608-0.08,2.852,2.852,0,0,1,1.631.72,4.915,4.915,0,0,1,.817.92,11.852,11.852,0,0,1,.7,1.19c0.449,0.83.934,1.76,1.435,2.73,0.249,0.49.491,0.97,0.726,1.43a12.65,12.65,0,0,1,.632,1.39,5.126,5.126,0,0,1,.277,1.23,2.352,2.352,0,0,0-.708-0.3,3.179,3.179,0,0,0-1.055-.04,3.719,3.719,0,0,0-.8.19,1.353,1.353,0,0,0-.649.34,0.979,0.979,0,0,0-.592-0.19,2.115,2.115,0,0,0-.748.11,2.082,2.082,0,0,0-.791.52,2.013,2.013,0,0,0-.464.82,1.884,1.884,0,0,0-.064.75c0.007,0.05.016,0.1,0.026,0.15a0.487,0.487,0,0,0-.118.01,1.168,1.168,0,0,0-.9.84,1.425,1.425,0,0,0-.022.68c0.01,0.05.024,0.1,0.039,0.15a1.4,1.4,0,0,0-.363-0.31,1.933,1.933,0,0,0-.682-0.27,2,2,0,0,0-.438-0.05,1.488,1.488,0,0,0-.034-0.69,1.6,1.6,0,0,0-.236-0.48,1.714,1.714,0,0,0-.334-0.34,2.486,2.486,0,0,0-.662-0.37,0.777,0.777,0,0,0-.682-0.06,0.932,0.932,0,0,0,.469.47,2,2,0,0,1,.826.96,0.953,0.953,0,0,1-.006.6,0.622,0.622,0,0,1-.132.2,1.2,1.2,0,0,1-.215.17,1.5,1.5,0,0,0-.382.34c-0.074.11-.073,0.2-0.038,0.22a0.258,0.258,0,0,0,.2-0.03c0.1-.03.227-0.06,0.423-0.12a1.337,1.337,0,0,0,.338-0.15,1.153,1.153,0,0,0,.336-0.36c0.019-.03.036-0.07,0.051-0.1,0.089,0.06.212,0.13,0.359,0.21a3.741,3.741,0,0,1,.5.33,1.231,1.231,0,0,1,.381.51,2.888,2.888,0,0,1,.178.69c0.039,0.23.074,0.46,0.122,0.65a1.693,1.693,0,0,0,.161.43,1.9,1.9,0,0,0-.662.29,0.949,0.949,0,0,0-.592.89,1.155,1.155,0,0,0,.955-0.36,2.166,2.166,0,0,0,.659-0.6,1.591,1.591,0,0,1,.4.29,1.565,1.565,0,0,1,.335.57,2.553,2.553,0,0,1,.086.85c-0.006.16-.02,0.32-0.036,0.48l-0.046.46a1.2,1.2,0,0,1-.073.32,0.66,0.66,0,0,1-.057.1,0.951,0.951,0,0,1-.077.08,0.3,0.3,0,0,1-.161.06h-0.035a0.127,0.127,0,0,1-.06-0.02,0.3,0.3,0,0,0-.228.03,0.208,0.208,0,0,0-.075.1,0.06,0.06,0,0,1,0,.02,0.108,0.108,0,0,0,0,.04,0.118,0.118,0,0,0,.015.05,0.169,0.169,0,0,0,.105.08,0.132,0.132,0,0,0,.07-0.02l0.032,0.02a0.308,0.308,0,0,0,.088.05,0.669,0.669,0,0,0,.442,0,1.066,1.066,0,0,0,.222-0.12,1.024,1.024,0,0,0,.186-0.2,1.041,1.041,0,0,0,.1-0.2c0.037,0.15.083,0.31,0.137,0.51,0.088,0.31.191,0.67,0.306,1.08a4.44,4.44,0,0,1,.141.6,0.873,0.873,0,0,1-.01.26,2.282,2.282,0,0,1-.084.31c-0.151.47-.286,0.93-0.4,1.34a5.061,5.061,0,0,1-.155.52,0.406,0.406,0,0,1-.1.13,1.435,1.435,0,0,1-.185.11,1.975,1.975,0,0,0-.872.63,1.877,1.877,0,0,0,1.056-.21,1.562,1.562,0,0,0,.269-0.12,0.838,0.838,0,0,0,.288-0.26,1.472,1.472,0,0,0,.155-0.33c0.035-.09.072-0.19,0.109-0.29,0.147-.4.3-0.85,0.45-1.32a2.916,2.916,0,0,0,.1-0.4,1.478,1.478,0,0,0,0-.45,4.167,4.167,0,0,0-.2-0.7,11.011,11.011,0,0,0-.447-1.07,4.586,4.586,0,0,0-.444-0.75c0.024-.12.045-0.24,0.064-0.36a4.7,4.7,0,0,0,.054-0.54,2.417,2.417,0,0,0-.177-1.08,1.592,1.592,0,0,0-.607-0.71,0.943,0.943,0,0,0-.607-0.17,0.343,0.343,0,0,0-.11.02,0.169,0.169,0,0,0-.074-0.02c0.02-.11.03-0.27,0.044-0.46s0.024-.41.015-0.67a2.562,2.562,0,0,0-.139-0.79,0.239,0.239,0,0,0,.251.11,0.569,0.569,0,0,0,.027-0.46,2.044,2.044,0,0,1,.022-0.82,1.178,1.178,0,0,1,.434-0.6,0.872,0.872,0,0,1,.116-0.07,0.164,0.164,0,0,0,.143.1,1.2,1.2,0,0,0,.139-0.6,2.09,2.09,0,0,1,1.647-1.76,1.246,1.246,0,0,0,.594-0.17,2.1,2.1,0,0,0,.7.01,5.254,5.254,0,0,1,1.618.04,2.188,2.188,0,0,1,.753.33,4.345,4.345,0,0,1,.546.47,1.159,1.159,0,0,0,.584.47,0.569,0.569,0,0,0-.1-0.5,4.485,4.485,0,0,1,.35.59,5.961,5.961,0,0,1,.325.82,7.854,7.854,0,0,1,.334,1.97,9.4,9.4,0,0,1-.486,3.54l-0.031.09c0.109-.15.219-0.3,0.331-0.43a3.606,3.606,0,0,1,1.219-1l0.084-.03c0.015-.09.031-0.18,0.05-0.27a6.605,6.605,0,0,1,.347-1.13,9.356,9.356,0,0,1,.572-1.13c0.429-.72.841-1.4,1.267-2.01a10.529,10.529,0,0,1,1.265-1.51c0.405-.38.726-0.67,0.931-0.89l0.175-.18a1.528,1.528,0,0,1,.03-0.16,0.552,0.552,0,0,1,.212-0.41,0.967,0.967,0,0,1,.038.44,9.7,9.7,0,0,0,.152,1.15A3.7,3.7,0,0,1,231.986,2294.13Zm-3.291,26.28a1.558,1.558,0,0,0,.848-0.23,1.147,1.147,0,0,0,.535-0.79c0.025-.27-0.089-0.41-0.172-0.4a0.616,0.616,0,0,0-.259.25,2.119,2.119,0,0,1-.448.4c-0.205.12-.437,0.23-0.611,0.33A0.242,0.242,0,1,0,228.7,2320.41Zm-5.182-3.26a2.818,2.818,0,0,0,1.18-.29,2.874,2.874,0,0,0,.975-0.72,0.515,0.515,0,0,0,.209-0.49,4.209,4.209,0,0,0-1.457.63,4.147,4.147,0,0,0-1.419.71A0.508,0.508,0,0,0,223.513,2317.15Zm-3.253-1.67a6.341,6.341,0,0,0,3.876.39,1.021,1.021,0,0,0,.758-0.35c-0.041-.18-1.227-0.03-2.661-0.18s-2.567-.53-2.645-0.36A1.057,1.057,0,0,0,220.26,2315.48Zm-2.228-.18a1.919,1.919,0,0,0,.461.94,0.4,0.4,0,0,0,.424.19,0.494,0.494,0,0,0-.036-0.43,7.616,7.616,0,0,1-.216-0.82,7.367,7.367,0,0,1-.1-0.84,0.5,0.5,0,0,0-.126-0.41,0.39,0.39,0,0,0-.322.33A1.874,1.874,0,0,0,218.032,2315.3Zm-0.058,3.01c-0.157-.29-0.342-0.41-0.411-0.36a0.715,0.715,0,0,0-.023.5,3.019,3.019,0,0,1-.059.97,2.963,2.963,0,0,1-.383.9c-0.041.05-.061,0.1-0.105,0.16a0.274,0.274,0,0,0-.042.32,0.164,0.164,0,0,0,.139.06,0.15,0.15,0,0,0,.089-0.05,0.058,0.058,0,0,0,.009-0.07,0.043,0.043,0,0,0-.033-0.01,0.032,0.032,0,0,0-.028.01c0-.01,0-0.01,0-0.01a0.058,0.058,0,0,1-.008-0.04c0-.01-0.009.02-0.02,0.03h0l-0.005-.01h0v-0.04h0.048a0.12,0.12,0,0,0,.031.03,0.268,0.268,0,0,1,.033.04c0.014,0.01.008,0.01,0.013,0.01a0.026,0.026,0,0,0,.022-0.01,0.975,0.975,0,0,0,.186-0.1A1.911,1.911,0,0,0,217.974,2318.31Zm-1.5,3.47a0.207,0.207,0,0,0-.053.22,1.045,1.045,0,0,0,.225.49,1.732,1.732,0,0,0,.639.5,2.385,2.385,0,0,0,.947.21,2.8,2.8,0,0,0,1.627-.47,0.73,0.73,0,0,0,.446-0.56,1.118,1.118,0,0,0-.652.15,4.255,4.255,0,0,1-1.4.24,2.453,2.453,0,0,1-.741-0.12,1.971,1.971,0,0,1-.54-0.27A2.138,2.138,0,0,0,216.475,2321.78Zm-7.422,5.05a1.161,1.161,0,0,0,.475.14,0.7,0.7,0,0,0-.036.08,0.541,0.541,0,0,0-.006.33,1.184,1.184,0,0,0,1.168.86c0.23-.02.349-0.12,0.34-0.2a0.444,0.444,0,0,0-.259-0.24,3.8,3.8,0,0,1-.469-0.33,2.685,2.685,0,0,1-.275-0.3,0.148,0.148,0,0,1-.055-0.06,0.121,0.121,0,0,0-.052-0.07,0.126,0.126,0,0,1-.024-0.03,0.02,0.02,0,0,1-.007-0.01h0a0.067,0.067,0,0,1,0-.02s0-.01.007-0.01a1.99,1.99,0,0,0,1.215-.65,2.314,2.314,0,0,0,.456-0.8,2.414,2.414,0,0,0,.119-0.72,0.688,0.688,0,0,0-.188-0.65,0.958,0.958,0,0,0-.262.58,3.174,3.174,0,0,1-.607,1.16,2.033,2.033,0,0,1-1.074.63,1.453,1.453,0,0,0-.594.14A0.19,0.19,0,0,0,209.053,2326.83Zm-37.294-3.95a2.815,2.815,0,0,1-.283-0.37,3.208,3.208,0,0,1-.261-0.49,3.018,3.018,0,0,1-.218-1,0.728,0.728,0,0,0-.1-0.5,0.5,0.5,0,0,0-.355.44,1.692,1.692,0,0,0-.082.59,2.166,2.166,0,0,0,.155.71,2.217,2.217,0,0,0,.392.62,1.716,1.716,0,0,0,.473.37,0.492,0.492,0,0,0,.558.06A0.75,0.75,0,0,0,171.759,2322.88Zm-15.78-19.07a1.112,1.112,0,0,0-.529-0.05,1.347,1.347,0,0,0-.621.26,1.3,1.3,0,0,0-.392.55,1.11,1.11,0,0,0-.066.52c0.04,0.31.189,0.44,0.267,0.42a0.687,0.687,0,0,0,.187-0.38,1.374,1.374,0,0,1,.406-0.61,1.479,1.479,0,0,1,.679-0.26,0.673,0.673,0,0,0,.414-0.1C156.368,2304.09,156.267,2303.92,155.979,2303.81Zm4.415,5.47a1.707,1.707,0,0,0-.8.04,1.59,1.59,0,0,0-.7.38,0.329,0.329,0,0,0-.156.35,1.422,1.422,0,0,0,1.029-.11,1.438,1.438,0,0,0,.943-0.43A0.337,0.337,0,0,0,160.394,2309.28Zm1.642,0.49a3.106,3.106,0,0,0-.312-0.11,1.464,1.464,0,0,0-.574-0.08,1.059,1.059,0,0,0-.4.12,1.127,1.127,0,0,0-.327.31,1.27,1.27,0,0,0-.227.75,1.59,1.59,0,0,0,.119.57,0.527,0.527,0,0,0,.341.41,0.605,0.605,0,0,0,.1-0.5,3.037,3.037,0,0,1,.028-0.45,1.007,1.007,0,0,1,.161-0.41,0.545,0.545,0,0,1,.293-0.22,2.936,2.936,0,0,1,.443-0.05,1.412,1.412,0,0,0,.374-0.09,0.16,0.16,0,0,0,.115-0.14A0.183,0.183,0,0,0,162.036,2309.77Zm16.182-23.89a0.671,0.671,0,0,0,.338.23,0.44,0.44,0,0,0,.113.02l0.057,0.01h0.043s0,0,0,.01a0.042,0.042,0,0,1,0,.01c0,0.03,0,.06-0.01.09l-0.065.37h0.362a1.335,1.335,0,0,0,.2,0c0.033,0,.066-0.03.1-0.03h0.024a0.053,0.053,0,0,1,.005.03l0,0.02a0.025,0.025,0,0,0,.02-0.01,0.111,0.111,0,0,0,.027-0.01,0.045,0.045,0,0,1,.018.02,0.129,0.129,0,0,1,.011.03c0,0.03.012,0.07,0.019,0.1a0.7,0.7,0,0,0,.153.31c0.126,0.15.245,0.17,0.282,0.13a0.431,0.431,0,0,0,.011-0.27,0.952,0.952,0,0,1,.006-0.21c0.005-.02.006-0.04,0.012-0.06a0.563,0.563,0,0,1,.045-0.15c0.053-.12.125-0.27,0.194-0.41a1.779,1.779,0,0,0-.289-0.04l-0.347-.03a0.693,0.693,0,0,0-.144-0.01,0.649,0.649,0,0,0-.078-0.25,0.505,0.505,0,0,0-.314-0.24,0.779,0.779,0,0,0-.264-0.01l-0.02.01h-0.034a0.115,0.115,0,0,1-.085-0.03,0.786,0.786,0,0,1-.2-0.23,0.543,0.543,0,0,0-.263-0.31,0.4,0.4,0,0,0-.115.43A0.9,0.9,0,0,0,178.218,2285.88Zm-17.063,16.32a1.774,1.774,0,0,0-1,.4,0.4,0.4,0,0,0-.222.42,0.557,0.557,0,0,0,.442-0.02,4.922,4.922,0,0,1,.839-0.16,6.026,6.026,0,0,1,.853,0,0.527,0.527,0,0,0,.44-0.05,0.412,0.412,0,0,0-.295-0.38A1.828,1.828,0,0,0,161.155,2302.2Zm2.907-5.95a4.475,4.475,0,0,0-.781,1.51c-0.016-.05-0.033-0.1-0.052-0.15-0.062-.17-0.124-0.38-0.184-0.61a6.309,6.309,0,0,1-.134-0.75,6.492,6.492,0,0,1-.025-0.76q0.016-.36.054-0.63a0.988,0.988,0,0,0,0-.65,0.7,0.7,0,0,0-.441.52,2.91,2.91,0,0,0-.206.7,3.512,3.512,0,0,0-.026.89,3.67,3.67,0,0,0,.21.87,2.748,2.748,0,0,0,.346.63,1.5,1.5,0,0,0,.348.36,4.55,4.55,0,0,0-.029,1.84,2.536,2.536,0,0,0,.087.34c0.016,0.04.032,0.09,0.046,0.13a0.4,0.4,0,0,0,.09.15,0.185,0.185,0,0,0,.1.06,0.166,0.166,0,0,0,.132-0.02,0.123,0.123,0,0,0,.038-0.14,0.089,0.089,0,0,0-.033-0.05c-0.008-.01-0.018-0.01-0.027-0.02s0-.02,0-0.03c0-.04.005-0.09,0.008-0.14,0-.09,0-0.2.01-0.32a8.584,8.584,0,0,1,.232-1.79c0.319-1.38,1.029-2.34.887-2.46A1.04,1.04,0,0,0,164.062,2296.25Zm4.971-1.55a3.107,3.107,0,0,1-.033-0.68,5.15,5.15,0,0,0-.006-0.52,2.049,2.049,0,0,0-.162-0.64,2.145,2.145,0,0,0-1.053-1.07,1.979,1.979,0,0,0-.773-0.19,4.78,4.78,0,0,0-.665.01,8.706,8.706,0,0,1-1.035-.01,2.554,2.554,0,0,0-1-.02,1.352,1.352,0,0,0,.926.47,4.993,4.993,0,0,0,1.118.15c0.21,0.01.417,0,.61,0.02a1.716,1.716,0,0,1,1.339.9,1.593,1.593,0,0,1,.167.46c0.034,0.16.055,0.32,0.081,0.48a1.669,1.669,0,0,0,.26.74c0.12,0.16.229,0.2,0.258,0.17A0.437,0.437,0,0,0,169.033,2294.7Zm0.785,1.21a3.979,3.979,0,0,1,.4-0.78,2.05,2.05,0,0,0,.454-0.74,1.049,1.049,0,0,0-.806.45,3.2,3.2,0,0,0-.588.83c-0.042.08-.085,0.19-0.11,0.24a0.044,0.044,0,0,1-.016.02H169.14c-0.016,0-.051.01-0.1,0.02a1.086,1.086,0,0,0-.169.04,2.085,2.085,0,0,0-.334.12,2.134,2.134,0,0,0-.971.89,2,2,0,0,0-.246,1.04,1.545,1.545,0,0,0,.176.67,0.3,0.3,0,0,0,.2.19,4.1,4.1,0,0,0,.082-0.84,1.856,1.856,0,0,1,.3-0.75,1.78,1.78,0,0,1,.735-0.62l0.236-.09,0.12-.03c0.044-.01.105-0.02,0.181-0.04a0.026,0.026,0,0,1,.024-0.01,1.481,1.481,0,0,0,.4.39,0.77,0.77,0,0,0,.927.16,0.92,0.92,0,0,0-.564-0.69,3.825,3.825,0,0,0-.4-0.23C169.773,2296.04,169.789,2295.98,169.818,2295.91Zm7.789-14.71a1.888,1.888,0,0,0,.255.05,0.66,0.66,0,0,0,.141.01l0.074,0.01h0.061s0-.01.01,0h0c0,0.01,0,0,0,.01l-0.036.09q-0.069.165-.129,0.33c-0.078.21-.142,0.39-0.188,0.55a0.7,0.7,0,0,0-.044.57,0.714,0.714,0,0,0,.409-0.39c0.095-.14.2-0.31,0.315-0.5,0.056-.09.115-0.2,0.174-0.31l0.044-.08,0.081-.15a0.615,0.615,0,0,0,.085-0.33,0.464,0.464,0,0,0-.222-0.35,0.835,0.835,0,0,0-.486-0.08h-0.063l-0.047-.01h-0.1a1.729,1.729,0,0,1-.211-0.04c-0.146-.02-0.3-0.05-0.437-0.07-0.282-.04-0.537-0.08-0.754-0.09a0.976,0.976,0,0,0-.729.07,0.955,0.955,0,0,0,.633.37c0.2,0.07.45,0.15,0.725,0.23C177.311,2281.13,177.451,2281.16,177.607,2281.2Zm-4.437,3.72c0.136,0.01.274,0.03,0.413,0.04,0.219,0.02.442,0.05,0.67,0.07,0.037-.09.076-0.19,0.114-0.28l0-.01,0.065-.15,0.011-.03a0.145,0.145,0,0,1,.029-0.02l0.031-.01a0.019,0.019,0,0,0,.019-0.01s0,0,0-.01a0.211,0.211,0,0,1,.021-0.03,0.511,0.511,0,0,1,.19-0.01,2.561,2.561,0,0,1,.307.08,3.7,3.7,0,0,1,.59.2,1.545,1.545,0,0,1,.414.27c0.111,0.11.17,0.23,0.367,0.47a0.717,0.717,0,0,0,.485.25c0.1,0.05.093-.08,0.114-0.14,0.016-.08.028-0.14,0.038-0.2a0.36,0.36,0,0,0-.018-0.34,0.279,0.279,0,0,0-.151.14q-0.018.03-.039,0.06c-0.014.01-.016,0.04-0.059,0.01a0.4,0.4,0,0,1-.128-0.18,1.748,1.748,0,0,0-.223-0.39,1.686,1.686,0,0,0-.542-0.45,4.045,4.045,0,0,0-.665-0.29c-0.11-.03-0.232-0.08-0.383-0.11a1.145,1.145,0,0,0-.54.04,0.727,0.727,0,0,0-.346.32,0.865,0.865,0,0,0-.047.11c-0.008.02,0,.02-0.008,0.02l0,0.01h-0.033a1.785,1.785,0,0,1-.231-0.02H173.6a0.027,0.027,0,0,0-.009.01l0-.01h0a0.323,0.323,0,0,0-.007-0.05,0.587,0.587,0,0,0-.028-0.11,1,1,0,0,0-.205-0.36,1.215,1.215,0,0,0-.29-0.23,1.4,1.4,0,0,0-.293-0.12,4.395,4.395,0,0,0-.489-0.11,2.935,2.935,0,0,1-.346-0.11,0.792,0.792,0,0,1-.366-0.31,0.585,0.585,0,0,0-.106-0.19c-0.029-.01-0.1.07-0.094,0.24a0.83,0.83,0,0,0,.36.58,3.5,3.5,0,0,0,.862.39,0.954,0.954,0,0,1,.188.1,0.56,0.56,0,0,1,.132.13,0.449,0.449,0,0,1,.076.16,0.159,0.159,0,0,1,.006.03c0,0.01,0,0,0,.03a0.171,0.171,0,0,1-.027.08c-0.065.13-.13,0.26-0.2,0.4C172.872,2284.89,173.025,2284.91,173.17,2284.92Zm0.225,9.04a0.771,0.771,0,0,0-.459-0.3,0.238,0.238,0,0,0-.286.1,0.352,0.352,0,0,0,.039.28,1.944,1.944,0,0,0,.192.31,2.808,2.808,0,0,0,.241.27,0.36,0.36,0,0,0,.259.11,0.248,0.248,0,0,0,.177-0.25A0.77,0.77,0,0,0,173.4,2293.96Zm3.334-1.42a1.086,1.086,0,0,0-.5-0.31,0.277,0.277,0,0,0-.313.07,0.806,0.806,0,0,0,.345.68,0.822,0.822,0,0,0,.66.38,0.274,0.274,0,0,0,.086-0.31A1.067,1.067,0,0,0,176.729,2292.54Zm2.09,25.69a12.068,12.068,0,0,1-1-.92,6.242,6.242,0,0,1-.587-0.7l-0.6-.03a1.958,1.958,0,0,1-.241-0.02,5.329,5.329,0,0,0-.556-0.65,7.315,7.315,0,0,0-1.251-.97,12.31,12.31,0,0,0-1.724-.86c-1.266-.5-2.434-0.8-3.267-1.05a3.69,3.69,0,0,0-1.392-.31,2.985,2.985,0,0,0,1.236.74c0.808,0.36,1.962.74,3.183,1.22a12.307,12.307,0,0,1,2.917,1.58c0.121,0.09.232,0.18,0.332,0.26-0.606-.06-1.186-0.14-1.723-0.24-0.378-.07-0.737-0.14-1.069-0.22s-0.641-.16-0.92-0.24a11.735,11.735,0,0,1-1.438-.51c-0.137,0-.274.01-0.414,0.01a2.164,2.164,0,0,1,.071.28c0.013,0.06.027,0.12,0.043,0.19,1.012,0.2,3.841,1.03,7.146,2.12,0.506,0.17,1,.33,1.474.49A2.671,2.671,0,0,1,178.819,2318.23Zm1.16-27.25a0.256,0.256,0,0,0-.3-0.03,0.375,0.375,0,0,0-.1.26,1.409,1.409,0,0,0,.018.33,1.306,1.306,0,0,0,.086.32,0.374,0.374,0,0,0,.174.22,0.251,0.251,0,0,0,.271-0.12,0.722,0.722,0,0,0,.1-0.52A0.732,0.732,0,0,0,179.979,2290.98ZM181,2319.82a1.961,1.961,0,0,0-.734-0.73,0.415,0.415,0,0,0-.461-0.05,0.489,0.489,0,0,0,.168.4c0.132,0.19.306,0.42,0.472,0.7s0.287,0.55.385,0.76a0.513,0.513,0,0,0,.27.34,0.4,0.4,0,0,0,.177-0.43A1.9,1.9,0,0,0,181,2319.82Zm2.285-29.46a0.461,0.461,0,0,0-.412.45,0.359,0.359,0,1,0,.632.12A0.457,0.457,0,0,0,183.287,2290.36Zm0.47,31.69a0.421,0.421,0,0,0,.169.39c0.142,0.17.346,0.36,0.512,0.58a2.15,2.15,0,0,1,.312.61,0.625,0.625,0,0,0,.157.35c0.074,0.04.233-.07,0.3-0.34a1.256,1.256,0,0,0-.253-1,1.733,1.733,0,0,0-.766-0.57A0.4,0.4,0,0,0,183.757,2322.05Zm4.479-31.87a0.029,0.029,0,0,0-.036-0.01s0.012-.01-0.006-0.02a0.136,0.136,0,0,0-.1.03,0.652,0.652,0,0,0-.1.07,0.612,0.612,0,0,0-.112.18c-0.013.03-.021,0.07-0.032,0.09a2.117,2.117,0,0,0,.2.09,0.457,0.457,0,0,1,.046-0.19l0.028-.05,0.022-.03a0.333,0.333,0,0,1,.051-0.07,0.2,0.2,0,0,0,.048-0.05l0-.01A0.03,0.03,0,0,0,188.236,2290.18Zm8.914,0.07a0.652,0.652,0,0,0-.1-0.07,0.136,0.136,0,0,0-.1-0.03c-0.018.01-.007,0.02-0.006,0.02a0.029,0.029,0,0,0-.036.01,0.03,0.03,0,0,0-.006.03l0,0.01a0.2,0.2,0,0,0,.048.05,0.332,0.332,0,0,1,.05.07h0.006a1.369,1.369,0,0,0,.2-0.02A0.549,0.549,0,0,0,197.15,2290.25Zm3.689,31.11a7.729,7.729,0,0,1-1.808.21c-0.771.01-1.707-.08-2.752-0.13s-2.192-.11-3.4-0.16c-4.82-.2-8.734-0.21-8.741-0.03s3.9,0.47,8.715.67c1.205,0.05,2.354.09,3.4,0.11s1.989,0.06,2.8-.01a5.667,5.667,0,0,0,1.869-.42,1.218,1.218,0,0,0,.588-0.39A1.8,1.8,0,0,0,200.839,2321.36Zm2.8,0.62a0.766,0.766,0,0,1-.271-0.29,0.821,0.821,0,0,1-.074-0.45,2,2,0,0,1,.415-0.93,0.665,0.665,0,0,0,.21-0.51,0.547,0.547,0,0,0-.535.19,1.886,1.886,0,0,0-.438.43,1.484,1.484,0,0,0-.293.76,1.22,1.22,0,0,0,.222.84,0.953,0.953,0,0,0,.3.27,1.052,1.052,0,0,0,.3.11,0.988,0.988,0,0,0,.417.01,0.169,0.169,0,0,0,.16-0.1A0.709,0.709,0,0,0,203.638,2321.98Zm5.967-36.5a1.714,1.714,0,0,0-.429.43,1.652,1.652,0,0,1-.472.31,1.033,1.033,0,0,1-.3.08c-0.053.01-.107,0.01-0.161,0.02a0.084,0.084,0,0,1-.04-0.01h-0.051l-0.1-.01-0.218-.03c-0.033-.01-0.065-0.01-0.1-0.02a3.46,3.46,0,0,0-.148.65c-0.006.09,0,.06,0,0.07s0,0,.008.01a0.011,0.011,0,0,1-.007.01l0,0.01h-0.022a0.39,0.39,0,0,1-.1.02l-0.392.06,0.157,0.31a1.5,1.5,0,0,0,.526.61,0.3,0.3,0,0,0,.315.07,0.964,0.964,0,0,0-.2-0.51c0.118-.01.237-0.01,0.361-0.01-0.007-.11-0.021-0.22-0.027-0.33a1.833,1.833,0,0,1-.008-0.27h-0.023v-0.01h0.094a1.132,1.132,0,0,0,.262-0.02,1.584,1.584,0,0,0,.454-0.18,1.471,1.471,0,0,0,.567-0.56,0.994,0.994,0,0,0,.146-0.5C209.682,2285.55,209.647,2285.48,209.605,2285.48Zm-4.033,5.31a0.243,0.243,0,0,0-.248-0.17,0.372,0.372,0,0,0-.207.19,2.022,2.022,0,0,0-.146.31,1.861,1.861,0,0,0-.095.34,0.364,0.364,0,0,0,.033.28,0.245,0.245,0,0,0,.3.03,0.774,0.774,0,0,0,.363-0.42A0.76,0.76,0,0,0,205.572,2290.79Zm3.167,1.48a1.306,1.306,0,0,0-.881,1.17,0.309,0.309,0,0,0,.157.34,0.386,0.386,0,0,0,.278-0.21c0.1-.13.211-0.29,0.341-0.46s0.258-.33.353-0.46a0.377,0.377,0,0,0,.118-0.32A0.293,0.293,0,0,0,208.739,2292.27Zm3.141,1.6a0.356,0.356,0,0,0-.278.18,3.357,3.357,0,0,0-.292.45,3.644,3.644,0,0,0-.235.49,0.348,0.348,0,0,0,0,.33,0.292,0.292,0,0,0,.342-0.03,1.231,1.231,0,0,0,.458-0.47,1.253,1.253,0,0,0,.168-0.64A0.3,0.3,0,0,0,211.88,2293.87Zm0.322,19.98a9.1,9.1,0,0,0-3.11,1.15,15.49,15.49,0,0,0-2.633,1.96,2.912,2.912,0,0,0-.9,1.03,3.091,3.091,0,0,0,1.185-.67c0.684-.47,1.6-1.14,2.672-1.76a13.219,13.219,0,0,1,2.885-1.27,5.19,5.19,0,0,0,1.282-.39A2.245,2.245,0,0,0,212.2,2313.85Zm10.016-8.99c-0.27.08-.583,0.16-0.929,0.24-0.195.39-.425,0.83-0.682,1.28-0.108.19-.225,0.38-0.3,0.54a0.87,0.87,0,0,0-.106.43,4.693,4.693,0,0,0,.056.51,1.847,1.847,0,0,1,0,.53,0.034,0.034,0,0,1,0,.01,11.045,11.045,0,0,0,1.221-1.45c0.481-.68.95-1.47,1.442-2.31a0.07,0.07,0,0,1,.008-0.01A7.193,7.193,0,0,1,222.218,2304.86Zm4.005-2.54c-0.162-.09-1.212,1.67-2.7,3.67a4.136,4.136,0,0,1-.567.63,3.873,3.873,0,0,1-.656.44c-0.232.13-.468,0.25-0.684,0.39a5.537,5.537,0,0,0-.571.42,3.97,3.97,0,0,0-.7.74,0.464,0.464,0,0,0-.154.35,5.991,5.991,0,0,0,1.119-.73c0.169-.1.357-0.21,0.565-0.32s0.44-.2.694-0.32a3.93,3.93,0,0,0,.789-0.49,4.128,4.128,0,0,0,.673-0.72C225.57,2304.31,226.376,2302.4,226.223,2302.32Zm2.063-1.78a2.186,2.186,0,0,0-.147-0.36,1.467,1.467,0,0,0-.3-0.4,1.153,1.153,0,0,0-.227-0.18,0.949,0.949,0,0,0-.266-0.11,0.787,0.787,0,0,0-.483.01,0.464,0.464,0,0,0-.265.2,0.119,0.119,0,0,0,0,.15,0.966,0.966,0,0,0,.328.1,1.333,1.333,0,0,1,.227.09c0.04,0.03.074,0.05,0.113,0.08s0.082,0.07.125,0.11c0.086,0.09.171,0.19,0.255,0.28a3.394,3.394,0,0,0,.237.25,1.516,1.516,0,0,0,.155.13,0.288,0.288,0,0,0,.125.08,0.143,0.143,0,0,0,.124-0.11A0.538,0.538,0,0,0,228.286,2300.54Zm-64.761,0v-0.01a0.516,0.516,0,0,1,.014-0.07h0.005v0.03a0.019,0.019,0,0,0-.007.02,0.047,0.047,0,0,0,0,.01l0,0.01h0.006v-0.01c0,0.01,0,.01,0,0.01h0A0.017,0.017,0,0,1,163.525,2300.54Zm0.019-.02h0Z" transform="translate(-90.5 -2256.5)"/>
</svg>
