<svg xmlns="http://www.w3.org/2000/svg" width="17.72" height="17.719" viewBox="0 0 17.72 17.719">
  <defs>
    <style>
      .cls-1 {
        fill: #0f1420;
        fill-rule: evenodd;
      }
    </style>
  </defs>
  <path class="cls-1" d="M1275.19,373.173l-2.21,2.217-6.65-6.649-6.65,6.649-2.22-2.217,6.65-6.649-6.65-6.649,2.22-2.216,6.65,6.649,6.65-6.649,2.21,2.216-6.65,6.649Z" transform="translate(-1257.47 -357.656)"/>
</svg>
