<?xml-stylesheet href="/css/style.css" type="text/css"?>
<svg version="1.1" width="100%" height="100%" xmlns="http://www.w3.org/2000/svg" xmlns:xlink="http://www.w3.org/1999/xlink">

	<defs>
		<symbol id="swimFishImg">
			<path d="M102.7,17.15a0.092,0.092,0,0,1,.034.025,1.449,1.449,0,0,1-.768.643c0.025,0,.039,0,0.069,0a2.594,2.594,0,0,1,.685.177,1.742,1.742,0,0,1,.46.277,0.8,0.8,0,0,1,.306.609,0.912,0.912,0,0,1-.372.7,5.251,5.251,0,0,1-.71.449,46.447,46.447,0,0,1-8.978,4.049,57.78,57.78,0,0,1-14.358,2.7,74.19,74.19,0,0,1-17.849-1.168,105.515,105.515,0,0,1-10.642-2.559,52.789,52.789,0,0,1-6.135-.022,12.039,12.039,0,0,1-3.419-.8A19.6,19.6,0,0,1,38.181,20.7a20.83,20.83,0,0,0-2.473-1.379c-0.8-.349-1.6-0.584-2.335-0.828a7.377,7.377,0,0,1-3.252-1.741,3.342,3.342,0,0,1-.342-0.457,15.527,15.527,0,0,0-6.867.407c-0.343.393-.883,0.961-1.594,1.661a38.245,38.245,0,0,1-5.624,4.62,21.41,21.41,0,0,1-6.662,2.995,10.636,10.636,0,0,1-2.8.352,0.245,0.245,0,0,1-.175.108A0.158,0.158,0,0,1,6.077,26.3a0.069,0.069,0,0,1-.058-0.03,0.13,0.13,0,0,1,.093-0.062A14.334,14.334,0,0,1,7.181,24.4a18.772,18.772,0,0,1,3.711-4.2c2.177-1.854,4.125-3.408,5.242-4.212a1.364,1.364,0,0,0,.249-0.438,1.877,1.877,0,0,0-.534-1.926,22.124,22.124,0,0,0-2.768-1.972L9.565,9.264C7.083,7.551,4.86,5.965,3.272,4.786A13.657,13.657,0,0,1,.79,2.75a0.071,0.071,0,0,1,.042,0A0.515,0.515,0,0,1,.785,2.708a1.058,1.058,0,0,1-.01-1.165A1.684,1.684,0,0,1,2.514.956c0.708,0.1,1.441.3,2.284,0.5A67.517,67.517,0,0,1,17.417,6.016,25.234,25.234,0,0,0,24.3,8.269a23.256,23.256,0,0,0,2.994.24c0.275-.139.571-0.28,0.909-0.424a47.1,47.1,0,0,1,8.576-2.332,106.516,106.516,0,0,1,29.2-1.739,105.4,105.4,0,0,1,15.949,2.46,61.185,61.185,0,0,1,6.793,1.914,55.275,55.275,0,0,1,5.653,2.42c3.364,1.665,6.064,2.983,7.93,4a1.985,1.985,0,0,1,.925,1.118,1.206,1.206,0,0,1-.27,1.034A0.839,0.839,0,0,1,102.7,17.15Zm-46.563-.257c2.064,0.26,4.883.814,8,1.5A77.568,77.568,0,0,0,72.2,19.861a11.561,11.561,0,0,0,3.405.085,22.81,22.81,0,0,0-3.331-.609c-2.054-.347-4.861-0.978-7.981-1.671a56.034,56.034,0,0,0-8.1-1.3,10.984,10.984,0,0,0-3.407.085A25.532,25.532,0,0,0,56.139,16.893Zm-4.313-.937c1.376,0,3.013.1,4.825,0.268,1.811,0.188,3.8.458,5.881,0.786,4.162,0.677,7.949,1.313,10.72,1.561,1.384,0.128,2.508.2,3.287,0.193a3.785,3.785,0,0,0,1.211-.069,43.145,43.145,0,0,0-4.434-.65c-2.736-.38-6.485-1.095-10.666-1.774-2.092-.33-4.1-0.582-5.936-0.734a41.357,41.357,0,0,0-4.894-.111c-0.7.009-1.326,0.084-1.877,0.133a12.619,12.619,0,0,0-1.407.189,3.782,3.782,0,0,0-1.179.287C47.374,16.164,49.074,15.938,51.826,15.956Zm24.342,1.391a6.688,6.688,0,0,0-1.556-.43c-1.011-.232-2.482-0.522-4.308-0.842-3.651-.643-8.73-1.356-14.371-1.816s-10.77-.572-14.477-0.525C39.6,13.755,38.1,13.8,37.068,13.87a6.676,6.676,0,0,0-1.605.173,6.734,6.734,0,0,0,1.61.118l4.38,0.1c3.7,0.089,8.8.289,14.419,0.742S66.559,16.09,70.221,16.6L74.56,17.2A6.673,6.673,0,0,0,76.168,17.346Zm-38.908.171c1.2,0.53,2.8,1.354,4.625,2.231a22.63,22.63,0,0,0,4.885,1.8,4.588,4.588,0,0,0,2.163.154,9.906,9.906,0,0,0-2.025-.666,38.169,38.169,0,0,1-4.7-1.962,42.868,42.868,0,0,0-4.754-2.047,5.021,5.021,0,0,0-2.118-.44A8.3,8.3,0,0,0,37.26,17.517ZM16.3,18.6a11.966,11.966,0,0,0-2.125,2.408,5.131,5.131,0,0,1-.692,1.073,4.846,4.846,0,0,1-.9.663,3.12,3.12,0,0,0-1.642,1.744A14.28,14.28,0,0,1,12.851,23.2a4.792,4.792,0,0,0,1.063-.675,5.164,5.164,0,0,0,.853-1.165,13.413,13.413,0,0,1,2.05-2.221C20,16.1,22.929,14.014,22.806,13.834,22.706,13.665,19.543,15.5,16.3,18.6ZM82.473,9.352c-0.52-.118-1.289-0.289-2.284-0.485C78.2,8.495,75.3,7.992,71.7,7.57a133.36,133.36,0,0,0-28.31-.217c-2.756.266-5.44,0.627-8.017,1.03s-5.046.809-7.414,0.97a24.822,24.822,0,0,1-6.68-.324,28.276,28.276,0,0,1-5.551-1.842,62.534,62.534,0,0,0-7.971-3.2,16.661,16.661,0,0,0-2.3-.47,3.335,3.335,0,0,0-.816-0.048c-0.011.072,1.111,0.187,3.029,0.8a75.332,75.332,0,0,1,7.841,3.4,28.011,28.011,0,0,0,5.638,1.966,25.054,25.054,0,0,0,6.851.4c2.412-.145,4.91-0.539,7.481-0.933s5.236-.745,7.979-1.01a144.739,144.739,0,0,1,28.18,0c3.6,0.354,6.493.775,8.5,1.058l2.3,0.346a3.365,3.365,0,0,0,.814.072A3.325,3.325,0,0,0,82.473,9.352ZM85.144,15.3a1.456,1.456,0,0,0-1.171-.2,2.753,2.753,0,0,0-1.044.432,4.558,4.558,0,0,0-1.378,1.527,2.141,2.141,0,0,0-.355,1.72,1,1,0,0,0,1.037.684c0.323-.057.389-0.257,0.355-0.277-0.037-.043-0.165.032-0.355-0.015a0.724,0.724,0,0,1-.525-0.531,1.79,1.79,0,0,1,.431-1.217,4.523,4.523,0,0,1,1.2-1.266,1.615,1.615,0,0,1,1.383-.312c0.049,0.031.089,0.041-.05,0.219a2.888,2.888,0,0,1-.512.389,12.5,12.5,0,0,0-1.255.64,1.769,1.769,0,0,0,1.5-.169,2.823,2.823,0,0,0,.7-0.412A0.913,0.913,0,0,0,85.422,16,0.729,0.729,0,0,0,85.144,15.3Zm13.363,0.065a1.019,1.019,0,0,0-.746-0.795,1.11,1.11,0,0,0-.442-0.014,0.515,0.515,0,0,0-.254-0.173c-0.217-.037-0.267.107-0.235,0.132a0.344,0.344,0,0,1,.115.119,0.465,0.465,0,0,1,.02.085,0.1,0.1,0,0,0-.039.1,0.09,0.09,0,0,0,.029.021,0.123,0.123,0,0,1-.01.043c-0.032.057-.095,0.142-0.18,0.267a0.939,0.939,0,0,0-.183.618,0.986,0.986,0,0,0,1.24.813A1.054,1.054,0,0,0,98.508,15.364Zm-0.313,2.158a1.475,1.475,0,0,1-1.77-.112,2.994,2.994,0,0,1-.63-1.937,0.432,0.432,0,0,0-.021-0.143l-0.023-.095c-0.036-.089.075-0.055,0.1-0.09a0.293,0.293,0,0,0,.194-0.133,0.382,0.382,0,0,0-.331-0.168L95.512,14.8l-0.124-.024c-0.035,0-.023.067-0.037,0.1-0.029.2-.058,0.387-0.087,0.578a3.96,3.96,0,0,0-.016,1.133,2.406,2.406,0,0,0,.642,1.349,1.731,1.731,0,0,0,1.48.517,2.417,2.417,0,0,0,1.095-.474,1.292,1.292,0,0,0,.663-0.8A1.854,1.854,0,0,0,98.195,17.522Zm2.374-.15c-0.927.8-1.139,1.825-.946,1.881,0.2,0.08.662-.652,1.44-1.317,0.764-.681,1.553-1.041,1.5-1.249C102.532,16.49,101.492,16.562,100.569,17.372Zm-3.307-1.7A2.841,2.841,0,0,1,97.44,15a0.945,0.945,0,0,1,.127.059,0.5,0.5,0,0,1,.257.4,0.4,0.4,0,0,1-.215.4A0.342,0.342,0,0,1,97.262,15.676Z" />
		</symbol>
	</defs>

	<g class="fishswim__group fishswim__group_1">
		<g transform="translate(150 0)"><use class="fishswim__item fishswim__item_1" xlink:href="#swimFishImg"/></g>
		<g transform="translate(60 30)"><use class="fishswim__item fishswim__item_2" xlink:href="#swimFishImg"/></g>
		<g transform="translate(0 75)"><use class="fishswim__item fishswim__item_3" xlink:href="#swimFishImg"/></g>
		<g transform="translate(70 110)"><use class="fishswim__item fishswim__item_4" xlink:href="#swimFishImg"/></g>
		<g transform="translate(215 40)"><use class="fishswim__item fishswim__item_5" xlink:href="#swimFishImg"/></g>
		<g transform="translate(330 50)"><use class="fishswim__item fishswim__item_6" xlink:href="#swimFishImg"/></g>
		<g transform="translate(345 95)"><use class="fishswim__item fishswim__item_7" xlink:href="#swimFishImg"/></g>
		<g transform="translate(480 25)"><use class="fishswim__item fishswim__item_8" xlink:href="#swimFishImg"/></g>
	</g>

	<g class="fishswim__group fishswim__group_2">
		<g transform="translate(113 0) scale(0.6)"><use class="fishswim__item fishswim__item_1" xlink:href="#swimFishImg"/></g>
		<g transform="translate(47 23) scale(0.6)"><use class="fishswim__item fishswim__item_2" xlink:href="#swimFishImg"/></g>
		<g transform="translate(0 57) scale(0.6)"><use class="fishswim__item fishswim__item_3" xlink:href="#swimFishImg"/></g>
		<g transform="translate(157 30) scale(0.6)"><use class="fishswim__item fishswim__item_4" xlink:href="#swimFishImg"/></g>
		<g transform="translate(80 54) scale(0.6)"><use class="fishswim__item fishswim__item_5" xlink:href="#swimFishImg"/></g>
		<g transform="translate(101 91) scale(0.6)"><use class="fishswim__item fishswim__item_6" xlink:href="#swimFishImg"/></g>
		<g transform="translate(54 127) scale(0.6)"><use class="fishswim__item fishswim__item_7" xlink:href="#swimFishImg"/></g>
		<g transform="translate(245 42) scale(0.6)"><use class="fishswim__item fishswim__item_8" xlink:href="#swimFishImg"/></g>
		<g transform="translate(215 100) scale(0.6)"><use class="fishswim__item fishswim__item_9" xlink:href="#swimFishImg"/></g>
	</g>
</svg>
