<svg xmlns="http://www.w3.org/2000/svg" width="23" height="29" viewBox="0 0 23 29">
  <defs>
    <style>
      .cls-1 {
        fill: #000;
        fill-rule: evenodd;
      }
    </style>
  </defs>
  <path class="cls-1" d="M1736.88,460.03h-20.76a1.106,1.106,0,1,1,0-2.212h6.12a4.153,4.153,0,0,1,8.28,0h6.36A1.106,1.106,0,1,1,1736.88,460.03Zm-10.5-3.824a1.927,1.927,0,0,0-1.9,1.612h3.81A1.929,1.929,0,0,0,1726.38,456.206Zm-9.51,5.3h19.26a1.147,1.147,0,0,1,.84.369,1.089,1.089,0,0,1,.27.862l-1.88,16.195a4.628,4.628,0,0,1-4.62,4.076h-8.48a4.638,4.638,0,0,1-4.63-4.076l-1.87-16.195a1.089,1.089,0,0,1,.27-0.862A1.13,1.13,0,0,1,1716.87,461.505Zm2.99,17.174a2.4,2.4,0,0,0,2.4,2.116h8.48a2.4,2.4,0,0,0,2.4-2.116l1.74-14.963h-16.76Zm10.32-.034c-0.03,0-.06,0-0.09,0a1.108,1.108,0,0,1-1.02-1.19l0.85-10.552a1.119,1.119,0,0,1,2.23.177l-0.85,10.551A1.12,1.12,0,0,1,1730.18,478.645Zm-3.67,0a1.112,1.112,0,0,1-1.12-1.106V466.987a1.12,1.12,0,0,1,2.24,0v10.552A1.118,1.118,0,0,1,1726.51,478.645Zm-3.59,0c-0.03,0-.06,0-0.09,0a1.1,1.1,0,0,1-1.11-1.018l-0.86-10.551a1.119,1.119,0,0,1,2.23-.177l0.86,10.552A1.109,1.109,0,0,1,1722.92,478.641Z" transform="translate(-1715 -454)"/>
</svg>
