<?xml-stylesheet href="/css/style.css" type="text/css"?>
<svg version="1.1" width="100%" height="100%" xmlns="http://www.w3.org/2000/svg" xmlns:xlink="http://www.w3.org/1999/xlink" class="announce">

	<defs>
		<symbol id="swimSeaweed">
			<path d="M27.349,24.57c0.1,0.733.188,1.444,0.246,2.111,0.037,0.4.051,0.781,0.108,1.165a0.756,0.756,0,0,0-.1-0.144,1.642,1.642,0,0,1-.335-0.362,2.2,2.2,0,0,1-.324-1.74C27.016,25.23,27.267,24.9,27.349,24.57Zm38.394,97.491c-0.173.23-.368,0.409-0.535,0.594a1.521,1.521,0,0,0-.371.568,0.76,0.76,0,0,0,.1.588,4.038,4.038,0,0,1,.329,3.353c-0.021.061-.045,0.111-0.067,0.168,0,0,0,0,0,.005a1.205,1.205,0,0,0,.094.34,1.594,1.594,0,0,1-.05,1.055c0,0.095.008,0.194,0.012,0.3s0.007,0.228.011,0.347c0,0.087,0,.176,0,0.266,0.054,0.152-.144.122-0.225,0.164a5.307,5.307,0,0,1-.868.154,3.455,3.455,0,0,1-.968-0.021,0.876,0.876,0,0,1-.752-0.885,0.7,0.7,0,0,1,.389-0.536c0.052-.029.095-0.05,0.141-0.073a7.511,7.511,0,0,1,.051-1.853c0-.153,0-0.314,0-0.486a21.519,21.519,0,0,0,.018-2.517,3.958,3.958,0,0,0-.46-1.452,2.916,2.916,0,0,0-1.15-1.2,1.558,1.558,0,0,0-.841-0.19,2.772,2.772,0,0,0-.905.26,1.507,1.507,0,0,1-1.12.044,2.415,2.415,0,0,1-.908-0.693,7.114,7.114,0,0,0-1.508-1.579,1.143,1.143,0,0,0-.992-0.038,10.465,10.465,0,0,1-1.131.49,1.5,1.5,0,0,1-1.325-.3,5.647,5.647,0,0,1-.9-0.96,3.909,3.909,0,0,0-.871-0.87,1.107,1.107,0,0,0-.257-0.123,0.585,0.585,0,0,0-.134-0.041h-0.01a0.041,0.041,0,0,0,0,.017l0,0.013-0.03.089a1.775,1.775,0,0,1-.156.343,2.538,2.538,0,0,1-2.591,1.043,5.6,5.6,0,0,1-2.512-1.391,11.779,11.779,0,0,1-1.994-2.033,4.323,4.323,0,0,1-.638-1.283c-0.149-.467-0.129-0.946-0.292-1.287a2.062,2.062,0,0,0-.916-0.76,9.7,9.7,0,0,1-1.08-.768,9.994,9.994,0,0,1-1.753-1.865,13.5,13.5,0,0,0-1.476-1.844,3.773,3.773,0,0,0-1.9-.971c-0.694-.153-1.4-0.2-2.072-0.293a5.385,5.385,0,0,1-1.9-.575,2.9,2.9,0,0,1-1.294-1.286,2.539,2.539,0,0,1-.093-1.624,3.031,3.031,0,0,0,.057-1.321c-0.007-.031-0.018-0.059-0.027-0.089-0.245-.269-0.548-0.6-0.9-0.995-0.48-.541-1.06-1.173-1.661-1.935a2.306,2.306,0,0,1-.4-0.689,1.485,1.485,0,0,1-.01-0.868,3.862,3.862,0,0,1,.916-1.417,6.584,6.584,0,0,0,.967-1.228,5.042,5.042,0,0,0,.512-1.342,5.426,5.426,0,0,0-.029-2.442,4.957,4.957,0,0,0-.651-1.534c-0.022-.035-0.04-0.062-0.061-0.094-0.058-.056-0.115-0.112-0.18-0.166a6.641,6.641,0,0,0-.578-0.4,4.57,4.57,0,0,1-.637-0.468,3.623,3.623,0,0,1-.715-0.879,4.563,4.563,0,0,1-.8-1.69c-0.176-.668-0.072-1.45-0.325-2.2a2.455,2.455,0,0,0-.734-0.977,3.4,3.4,0,0,1-.466-0.522,2.335,2.335,0,0,1-.3-0.673c-0.136-.474-0.17-0.975-0.345-1.43a1.647,1.647,0,0,0-1.043-.972c-0.487-.192-1.045-0.279-1.589-0.532a4.094,4.094,0,0,1-1.374-1.169,15.854,15.854,0,0,0-1.181-1.393,2.329,2.329,0,0,0-1.623-.708c-0.631-.027-1.288.1-1.985,0.133a2.631,2.631,0,0,1-1.082-.15,1.484,1.484,0,0,1-.805-0.819,4.514,4.514,0,0,0-.4-0.944,1.223,1.223,0,0,0-.83-0.421,10.376,10.376,0,0,0-1.08-.066,2.509,2.509,0,0,1-1.163-.275A1.338,1.338,0,0,1,8.871,71.3a1.742,1.742,0,0,1-.172-0.61c-0.04-.409-0.023-0.779-0.064-1.159-0.011-.126-0.031-0.253-0.049-0.379a1.113,1.113,0,0,0,.478-0.694,1.133,1.133,0,0,0-.411-1.1,0.413,0.413,0,0,0-.462-0.126,1.217,1.217,0,0,0,.263.331,1.059,1.059,0,0,1,.214.811,0.9,0.9,0,0,1-.163.347,3.673,3.673,0,0,0-.549-1.321A2.257,2.257,0,0,0,6.077,66.4c-0.358.017-.732,0.2-1.173,0.273a1.115,1.115,0,0,1-.723-0.082,0.9,0.9,0,0,1-.457-0.61,8.065,8.065,0,0,1,0-1.286,0.835,0.835,0,0,0-.065-0.31,1.552,1.552,0,0,0,.2-0.029,1.85,1.85,0,0,0,.649-0.306,1.83,1.83,0,0,0,.317-0.293,3.215,3.215,0,0,0,.228-0.327l0.055-.087L5.133,63.3c0.015-.017.018-0.029-0.007-0.031L4.936,63.2l-0.2-.062L4.576,63.1l-0.207-.05c-0.136-.029-0.268-0.054-0.395-0.072A4.834,4.834,0,0,0,3.3,62.92a0.937,0.937,0,0,0-.624.1,1.181,1.181,0,0,0,.6.18l0.636,0.136,0.371,0.092,0.195,0.053L4.517,63.5h0s0,0,0,0a1.772,1.772,0,0,1-.243.254,2.185,2.185,0,0,1-.51.328c-0.083.038-.16,0.067-0.229,0.092a1.3,1.3,0,0,0-.4-0.311,2.372,2.372,0,0,1-1.077-.846,3.2,3.2,0,0,1-.138-1.356A4.566,4.566,0,0,0,.86,59.43a5.408,5.408,0,0,1-.666-1.2,2.6,2.6,0,0,1-.171-1.421A1.706,1.706,0,0,1,.9,55.628a2.5,2.5,0,0,1,1.429-.241A6.5,6.5,0,0,1,4.886,56.5a5.623,5.623,0,0,0,2.5.8c0.883,0.1,1.785.085,2.689,0.2a4.146,4.146,0,0,1,2.52,1.053,12.276,12.276,0,0,1,1.469,2.211,2.581,2.581,0,0,0,.808.868,1.221,1.221,0,0,0,1.073.056,3.156,3.156,0,0,1,1.3-.317,0.9,0.9,0,0,1,.638.438,1.9,1.9,0,0,1,.211.661,11.927,11.927,0,0,1-.046,2.51,3.841,3.841,0,0,0,.078,1.15,1.464,1.464,0,0,0,.594.857,4.327,4.327,0,0,0,2.193.318,2.906,2.906,0,0,1,1.184.275,2.762,2.762,0,0,1,.936.758,4.3,4.3,0,0,1,.864,2.129,7.45,7.45,0,0,1-.117,2.2c-0.125.705-.293,1.381-0.412,2.047a3.92,3.92,0,0,0-.032,1.906,2.161,2.161,0,0,0,1.341,1.122c0.285,0.126.578,0.245,0.857,0.4a3.471,3.471,0,0,1,.751.58,8.3,8.3,0,0,1,1.6,3.073l1.028,2.887,1.638,4.626c0.218,0.637.435,1.193,0.576,1.7a3.612,3.612,0,0,1,.145,1.315c0,0.007,0,.012,0,0.019a0.052,0.052,0,0,1,.032-0.017,0.248,0.248,0,0,1-.059.162,1.479,1.479,0,0,1-.256.6,0.823,0.823,0,0,1-.194.2,1.96,1.96,0,0,0,.318-0.562c-0.179.3-.463,0.77-0.8,1.384a6.661,6.661,0,0,0-.717,2.023,3.63,3.63,0,0,0,.416,2.485,8.708,8.708,0,0,1,1.315,2.416,11.02,11.02,0,0,1,.114,1.181c0.086,0.145.18,0.3,0.294,0.466a4.879,4.879,0,0,0,.722.89,1.208,1.208,0,0,0,1.163.329,0.857,0.857,0,0,0,.431-1.151c-0.146-.5-0.585-0.955-0.86-1.567a5.818,5.818,0,0,1-.484-1.955,11.736,11.736,0,0,1-.026-1.335q0.015-.324.029-0.642l0.019-.314c0.005-.064,0-0.075.015-0.186a0.379,0.379,0,0,1,.131-0.251,0.373,0.373,0,0,1,.341-0.052,1.406,1.406,0,0,1,.225.1,1.519,1.519,0,0,1,.337.265,1.941,1.941,0,0,1,.412.686,3.4,3.4,0,0,1,.156,1.415,5.233,5.233,0,0,0,.049,2.181,2.454,2.454,0,0,0,.842,1.125,4,4,0,0,0,.376.245,1.287,1.287,0,0,0,.459-0.2,1.571,1.571,0,0,0,.414-0.592c0.271-1.065.047-2.788,0.631-4.565a4.45,4.45,0,0,1,.631-1.216,11.672,11.672,0,0,1,.837-0.912,2.447,2.447,0,0,0,.577-1.8,8.5,8.5,0,0,0-.191-1.36c-0.025-.122-0.043-0.217-0.057-0.3-0.128-.314-0.268-0.639-0.419-0.99-0.4-.941-0.867-1.989-1.35-3.193a3.888,3.888,0,0,1-.236-0.992,3.49,3.49,0,0,1,.083-1.067A20.024,20.024,0,0,1,37.7,83.2a5.125,5.125,0,0,0,.26-1.079,0.8,0.8,0,0,0-.265-0.883,6.778,6.778,0,0,0-1.14-.272,1.206,1.206,0,0,1-.6-0.4,1.463,1.463,0,0,1-.283-0.658,2.256,2.256,0,0,1,.211-1.362c0.189-.415.439-0.782,0.634-1.162a2.228,2.228,0,0,0,.291-1.1l0.793,2.667a1.648,1.648,0,0,1,.008.938,2.439,2.439,0,0,1-.161.293,0.152,0.152,0,0,0,.077-0.048,0.692,0.692,0,0,0,.159-0.212,1.616,1.616,0,0,0,.071-1c-0.187-.846-0.518-2.033-0.911-3.515a16.826,16.826,0,0,0-.785-2.4,8.265,8.265,0,0,0-1.679-2.381c-0.7-.742-1.489-1.448-2.149-2.3a8.322,8.322,0,0,1-.708-1.092l0.535-.168a0.978,0.978,0,0,1,.244-0.006,0.367,0.367,0,0,1,.084.041,0.355,0.355,0,0,1,.048.034,0.388,0.388,0,0,1,.139.2,0.964,0.964,0,0,1-.008.3,0.53,0.53,0,0,0,.155.44,0.506,0.506,0,0,0,.37.123,0.569,0.569,0,0,0,.549-0.273,2.91,2.91,0,0,0-.535-0.013,0.176,0.176,0,0,1-.169-0.241,1.1,1.1,0,0,0,.024-0.419,0.752,0.752,0,0,0-.273-0.436,0.711,0.711,0,0,0-.092-0.064,0.39,0.39,0,0,0-.067-0.036h0c-0.014,0-.039.01-0.027-0.013a0.076,0.076,0,0,1,.01-0.019l0.095-.075,0.181-.135a0.812,0.812,0,0,0,.347-0.311,0.6,0.6,0,0,0-.473.081c-0.069.027-.143,0.062-0.22,0.1l-0.124.069c-0.067.045-.142,0.092-0.211,0.145-0.143.105-.275,0.22-0.425,0.346l-0.227.2a13.061,13.061,0,0,1-.764-1.728c-0.1-.278-0.194-0.557-0.284-0.836l0.56-.5,0.083-.075a1.634,1.634,0,0,1,.77-0.352,1.889,1.889,0,0,1,.725.027,0.85,0.85,0,0,0,.589-0.065c0.135-.1.12-0.2,0.1-0.208a1.734,1.734,0,0,0-.168.066,0.986,0.986,0,0,1-.457-0.073,1.8,1.8,0,0,0-1.213-.034,6.922,6.922,0,0,0,.812-1.34,4.332,4.332,0,0,0-1.558,1.81l-0.305.544c-0.233-.743-0.441-1.484-0.663-2.2a23.47,23.47,0,0,0-1.125-2.988A21.9,21.9,0,0,1,27.515,56.5a7.107,7.107,0,0,1-.306-2.417,4.582,4.582,0,0,1,.544-1.928,0.553,0.553,0,0,0,0-.521,0.8,0.8,0,0,0-.364-0.278h0a1.267,1.267,0,0,0-.289-0.75,1.571,1.571,0,0,1-.3-0.707,0.472,0.472,0,0,1,.081-0.342,1.638,1.638,0,0,1,.4-0.258,0.831,0.831,0,0,0,.361-0.583c0.033-.2.034-0.365,0.047-0.528,0.019-.325.031-0.618,0.035-0.864a1.684,1.684,0,0,0-.07-0.805,1.676,1.676,0,0,0-.214.779c-0.04.243-.081,0.534-0.121,0.856a1.058,1.058,0,0,1-.259.806,1.574,1.574,0,0,0-.493.356,0.832,0.832,0,0,0-.135.628,1.639,1.639,0,0,0,.436.831,4.955,4.955,0,0,1,.424.533,2.219,2.219,0,0,1-.494-0.3,2.5,2.5,0,0,1-.511-0.6,1.71,1.71,0,0,0-.009-1.135c-0.175-.553-0.58-1.088-0.793-1.785a1.945,1.945,0,0,1-.009-1.132,1.252,1.252,0,0,1,.826-0.884,4.373,4.373,0,0,1,1.1-.011,0.432,0.432,0,0,0,.515-0.4,5.964,5.964,0,0,0-.123-0.941,7.354,7.354,0,0,1-.066-0.979,7.542,7.542,0,0,1,.758-3.264,6.821,6.821,0,0,1,1.292-1.843c0.127-.129.234-0.223,0.328-0.3a2.186,2.186,0,0,0-.122-0.828,1.216,1.216,0,0,0-.566-0.654,5.563,5.563,0,0,1-1.056-.5,1.527,1.527,0,0,1-.653-1.234,1.236,1.236,0,0,1,.257-0.745c0.184-.224.409-0.328,0.506-0.462a0.84,0.84,0,0,0-.2-0.989c-0.248-.3-0.631-0.54-0.9-0.889a1.341,1.341,0,0,1-.256-1.234,4.772,4.772,0,0,1,.424-0.942,1.853,1.853,0,0,0,.263-0.968,1.958,1.958,0,0,0,.312.636,2.966,2.966,0,0,1,.54.759,2.292,2.292,0,0,1,.056.82c-0.021.54-.038,1.008-0.053,1.4a6.772,6.772,0,0,0,0,1.2,6.779,6.779,0,0,0,.153-1.186c0.034-.39.075-0.857,0.122-1.4A2.447,2.447,0,0,0,28.9,29.6a3.03,3.03,0,0,0-.555-0.849,4.048,4.048,0,0,1-.415-2.092c-0.056-.81-0.143-1.673-0.272-2.577s-0.3-1.847-.517-2.817-0.5-1.959-.758-2.969a15.669,15.669,0,0,1-.514-2.974,19.281,19.281,0,0,1,.051-2.817c0.152-1.8.406-3.423,0.47-4.805a16.84,16.84,0,0,0,.017-1.708,0.189,0.189,0,0,0,.082.165,8.539,8.539,0,0,0,.323-2.094,3.76,3.76,0,0,1,.1-0.756,1.268,1.268,0,0,1,.407-0.409,0.6,0.6,0,0,0,.251-0.617c-0.057-.021-0.153.207-0.433,0.4a1.2,1.2,0,0,0-.566.481,2.857,2.857,0,0,0-.162.866,9.944,9.944,0,0,0-.064,1.126c-0.029-.264-0.064-0.506-0.1-0.716a6.1,6.1,0,0,0-.207-0.866,0.9,0.9,0,0,0-.109-0.291c-0.04.01,0.073,0.422,0.16,1.18a15.7,15.7,0,0,1,.02,3.224c-0.1,1.363-.381,2.973-0.555,4.792a18.886,18.886,0,0,0-.075,2.876,15.635,15.635,0,0,0,.518,3.048c0.26,1.022.546,2,.764,2.957,0.2,0.867.36,1.709,0.49,2.524a1.623,1.623,0,0,0-.321-0.422,4.731,4.731,0,0,0-1.22-.78,3.149,3.149,0,0,1-1.314-1.094,2,2,0,0,1-.219-0.859,0.66,0.66,0,0,0-.386-0.464,2.389,2.389,0,0,1-.661-0.494,1.759,1.759,0,0,1-.369-0.733,2.07,2.07,0,0,1,.1-1.264l-0.029-.013a1.176,1.176,0,0,1-.525-0.61,1.324,1.324,0,0,1,.13-1.274c0.33-.436.979-0.549,1.253-0.981a0.615,0.615,0,0,0-.112-0.713,1.68,1.68,0,0,0-.794-0.487,3.24,3.24,0,0,1-1.041-.5,1.941,1.941,0,0,1-.627-1.1,2.782,2.782,0,0,1,.842-2.454,10.769,10.769,0,0,1,1.022-.878,1.3,1.3,0,0,0,.563-0.988A9.368,9.368,0,0,0,24.948,8.79,2.754,2.754,0,0,0,23.864,7.5l0.125,0c0-.1-0.009-0.219-0.014-0.321a1.957,1.957,0,0,0-.028-0.214l-0.033-.157a2.587,2.587,0,0,0-.083-0.273,0.713,0.713,0,0,0-.3-0.472,1.134,1.134,0,0,0,.04.539L23.6,6.863l0.01,0.145a0.614,0.614,0,0,1,0,.108c0,0.015-.014.01-0.021,0l-0.265-.007A4.072,4.072,0,0,0,23,6.654a7.152,7.152,0,0,1-.811-1.1,1.531,1.531,0,0,1-.077-1.408,2.043,2.043,0,0,1,.963-0.922,18.78,18.78,0,0,1,2.2-.566,0.7,0.7,0,0,0,.439-0.683,2.138,2.138,0,0,1,.3-0.961,2.177,2.177,0,0,1,1.38-.978A2.005,2.005,0,0,1,27.768,0,1.674,1.674,0,0,1,28,.012l0.051,0.229L28.122,0.56l0,0a4.169,4.169,0,0,1,.556,1.961c0.027,0.272.035,0.53,0.037,0.78a4.582,4.582,0,0,1,1.149.44,2.6,2.6,0,0,1,1.1,1.108,1.979,1.979,0,0,1-.158,1.928,2.434,2.434,0,0,1-.712.731c-0.157.1-.306,0.184-0.445,0.263a1.148,1.148,0,0,0,.189.732,3.083,3.083,0,0,0,1.089.936,2.4,2.4,0,0,1,.7.6,1.949,1.949,0,0,1,.358.96,2.659,2.659,0,0,1-.735,2.052,4.71,4.71,0,0,1-.895.766,2.9,2.9,0,0,0-.846.692,0.872,0.872,0,0,0,.085.953,2.616,2.616,0,0,1,.5,1.256,1.221,1.221,0,0,1-.261.7,3.579,3.579,0,0,1-.458.48,1.613,1.613,0,0,0-.628.857,1.29,1.29,0,0,0,.408.91,4.582,4.582,0,0,1,.638.986,6.162,6.162,0,0,1,.3,3.957c-0.017.075-.039,0.139-0.057,0.212a4,4,0,0,1-.14,2.607c-0.23.575-.739,1.053-0.612,1.555a1.139,1.139,0,0,0,.5.627c0.253,0.18.537,0.312,0.851,0.5a2.152,2.152,0,0,1,.756.788,1.092,1.092,0,0,1,.132.579,0.906,0.906,0,0,1-.256.546c-0.257.265-.557,0.4-0.716,0.586-0.142.165-.08,0.282,0.167,0.482a0.789,0.789,0,0,1,.3.449,0.629,0.629,0,0,1-.158.537,6.155,6.155,0,0,1-.629.54,0.516,0.516,0,0,0-.245.487,0.842,0.842,0,0,0,.392.41,2.052,2.052,0,0,1,.515.421,1.537,1.537,0,0,1,.278.539,1.627,1.627,0,0,1,.061.4,5.914,5.914,0,0,1,.7-0.694,5.98,5.98,0,0,1,2.308-1.212c0.234-.063.475-0.11,0.717-0.159-0.1.045-.216,0.088-0.317,0.135a21.353,21.353,0,0,0-2.064,1.061A14.089,14.089,0,0,0,29.9,38.012a7.84,7.84,0,0,0-.625.666,0.961,0.961,0,0,0-.187.26c0.025,0.023.324-.3,0.918-0.809a16.085,16.085,0,0,1,2.729-1.874,22.8,22.8,0,0,1,2.058-1c0.754-.33,1.586-0.621,2.453-0.992a7.514,7.514,0,0,0,2.5-1.623,12.89,12.89,0,0,0,1.834-2.606,24.886,24.886,0,0,1,7.193-8.144,25.747,25.747,0,0,1,2.812-1.769,8.887,8.887,0,0,0,1.067-.6,0.958,0.958,0,0,0-.3.1c-0.192.079-.481,0.187-0.835,0.364a20.719,20.719,0,0,0-2.9,1.675A23.56,23.56,0,0,0,44.823,24.9a24.311,24.311,0,0,0-3.594,4.933,12.8,12.8,0,0,1-1.768,2.532A7.234,7.234,0,0,1,37.1,33.919c-0.127.056-.25,0.1-0.377,0.157a1.631,1.631,0,0,0,.22-0.259,1.16,1.16,0,0,0,.2-0.713,4.831,4.831,0,0,1-.024-0.917,1.1,1.1,0,0,1,.646-0.81c0.3-.148.61-0.22,0.877-0.34a1.529,1.529,0,0,0,.879-1.387,3.818,3.818,0,0,0-.4-1.87,1.9,1.9,0,0,1-.18-1.137,0.814,0.814,0,0,1,.428-0.522,1.257,1.257,0,0,1,.613-0.1,2.01,2.01,0,0,0,.945-0.038,0.656,0.656,0,0,0,.2-0.754c-0.073-.385-0.246-0.819-0.291-1.266a4.461,4.461,0,0,1,.023-1.324,3.662,3.662,0,0,1,1.239-2.23,3.187,3.187,0,0,1,2.313-.772,7.419,7.419,0,0,1,1.134.23c0.178,0.044.353,0.085,0.525,0.113,0.085,0.015.174,0.026,0.254,0.032a0.037,0.037,0,0,0,.024,0,0.061,0.061,0,0,1,0-.029,0.74,0.74,0,0,1,.038-0.177,0.88,0.88,0,0,1,.212-0.329,1.074,1.074,0,0,1,.654-0.31,5.7,5.7,0,0,1,1.219.146,1.284,1.284,0,0,0,.427-0.027,0.323,0.323,0,0,0,.015.377,1.185,1.185,0,0,0,.511-0.49,1.185,1.185,0,0,0,.4-0.581,0.353,0.353,0,0,0-.408.063,1.291,1.291,0,0,1,.169-0.676,1.167,1.167,0,0,1,1.039-.391c0.355,0.023.648,0.115,0.935,0.125a0.89,0.89,0,0,0,.713-0.231c0.182-.176.351-0.408,0.552-0.576a1.946,1.946,0,0,1,1.272-.545,1.214,1.214,0,0,1,.925.446,0.933,0.933,0,0,1,.223.529c0.008,0.03.018,0.051,0.025,0.083a1.662,1.662,0,0,1-.037.8,0.526,0.526,0,0,0-.037.372,4.043,4.043,0,0,0,.354.35,2.23,2.23,0,0,1,.092,2.658,3.668,3.668,0,0,1-1.173,1.127,3.041,3.041,0,0,0-1.235.9,1.191,1.191,0,0,0-.022.713c0.049,0.273.1,0.547,0.136,0.821a3.9,3.9,0,0,1-.059,1.626,1.859,1.859,0,0,1-.97,1.15,6.253,6.253,0,0,1-1.191.391,4.832,4.832,0,0,0-1.39.6,1.88,1.88,0,0,1,.128.728,4.825,4.825,0,0,1-1.489,2.978A3.3,3.3,0,0,1,46.3,33.719a2.194,2.194,0,0,1-1.322-.293,5.244,5.244,0,0,0-1.132-.623,0.73,0.73,0,0,0-.873.555c-0.155.416-.183,0.917-0.322,1.431a2.412,2.412,0,0,1-.956,1.334,2.382,2.382,0,0,1-.77.36,2.936,2.936,0,0,1-.838.078,0.8,0.8,0,0,0-.6.167,3.5,3.5,0,0,0-.372.63,2.538,2.538,0,0,1-1.189,1.125,1.542,1.542,0,0,1-1.594-.251,1.36,1.36,0,0,1-.387-0.712,0.567,0.567,0,0,0-.306-0.424,1.785,1.785,0,0,0-1.189.078,7.846,7.846,0,0,0-1.162.444,10.343,10.343,0,0,0-1.585.962l-0.011.038c-0.157.526-.4,1.282-0.7,2.213l-0.5,1.522a3.919,3.919,0,0,0-.356,1.688,1,1,0,0,0,.528.644,1.163,1.163,0,0,1,.48,1.072,4.26,4.26,0,0,1-1.081,1.972,2.269,2.269,0,0,0-.4.92,0.757,0.757,0,0,0,.308.753,3.463,3.463,0,0,0,.9.358,1.545,1.545,0,0,1,.9.627,1.365,1.365,0,0,1,.1,1.057,4.471,4.471,0,0,1-.346.86c-0.13.261-.262,0.505-0.361,0.739a4.679,4.679,0,0,0-.167.5,2.135,2.135,0,0,1,1.291.763,2.219,2.219,0,0,1,.142,2.469,4.92,4.92,0,0,1-.435.561,0.407,0.407,0,0,0,0,.476,1.1,1.1,0,0,0,.477.4c0.211,0.094.462,0.158,0.722,0.26a1.526,1.526,0,0,1,.713.514,1.555,1.555,0,0,1,.274.812,3.224,3.224,0,0,1-.315,1.472,5.229,5.229,0,0,0-.4,1.185,2.45,2.45,0,0,0,.084,1.049l0.006,0.016a4.461,4.461,0,0,1,.728.148,2.009,2.009,0,0,1,1.078.7,1.531,1.531,0,0,1,.268.794,1.051,1.051,0,0,1-.368.89,6.449,6.449,0,0,1-.9.407,0.539,0.539,0,0,0-.236.323,0.1,0.1,0,0,0,.017.1l0.208,0.058a6.1,6.1,0,0,1,2.213,1.013,2.924,2.924,0,0,1,.833,1.1,2.109,2.109,0,0,1,.1,1.46,0.388,0.388,0,0,0,.062.462,0.581,0.581,0,0,0,.511.087,0.834,0.834,0,0,0,.44-0.383,2.055,2.055,0,0,0,.155-0.3l0.066-.167,0.116-.324c0.089,0.007.179,0.016,0.268,0.028a0.75,0.75,0,0,1,.129.031l0.083,0.032a1.254,1.254,0,0,1,.287.178,2.744,2.744,0,0,1,.424.455,9.856,9.856,0,0,1,.679.988,5.087,5.087,0,0,1,.513,1.136,2.513,2.513,0,0,1,.047,1.312,2.139,2.139,0,0,1-.522.917,8.714,8.714,0,0,1-.726.652,1.726,1.726,0,0,0-.81,1.4,2.6,2.6,0,0,0,.829,1.416,2.358,2.358,0,0,1,.489.808,1.137,1.137,0,0,1-.159.974,8.638,8.638,0,0,0-1.1,1.161,0.516,0.516,0,0,0,.008.557c0.1,0.142.381,0.206,0.6,0.41a1.7,1.7,0,0,1,.465,1.473,5.557,5.557,0,0,1-.4,1.309,8.4,8.4,0,0,0-.537,3.9c0.01,0.1.022,0.193,0.033,0.284a2.752,2.752,0,0,1,.337.6,12,12,0,0,1,.7,1.783,5.757,5.757,0,0,1,.2,2.866,4.237,4.237,0,0,1-.719,1.569c-0.34.485-.738,0.93-1.06,1.425a6.87,6.87,0,0,0-.8,3.222c-0.127,1.058-.288,2-0.448,2.794-0.151.741-.3,1.337-0.418,1.767a2.243,2.243,0,0,0,.1.208,3.649,3.649,0,0,0,1.127,1.139,4.537,4.537,0,0,1,1.509,1.511,7.853,7.853,0,0,1,.322,1.043,1.034,1.034,0,0,0,.53.632c0.513,0.264,1.113.273,1.584,0.527a1.366,1.366,0,0,1,.764.918,0.626,0.626,0,0,1-.033.314,0.7,0.7,0,0,1,.089-0.076,1.148,1.148,0,0,1,.7-0.176c0.279,0.006.565,0.053,0.887,0.036a4.421,4.421,0,0,0,2.134-.62,1.255,1.255,0,0,0,.445-0.368,2.389,2.389,0,0,0,.186-0.613l0.343-1.445a8.951,8.951,0,0,0,.286-1.411,3.736,3.736,0,0,0-.318-1.265,4.364,4.364,0,0,1-.283-2.383,2.3,2.3,0,0,1,.286-0.671c0.064-.029.15-0.072,0.256-0.115a1.761,1.761,0,0,1,.383-0.11,1.535,1.535,0,0,1,.229-0.021c0.058,0,.035,0,0.04,0v0h0c-0.009.042-.024,0.081-0.037,0.12a1.432,1.432,0,0,1-.1.217,1.558,1.558,0,0,1-.261.327,1.035,1.035,0,0,0-.313.3,0.441,0.441,0,0,0,.477-0.068,1.274,1.274,0,0,0,.4-0.349,1.434,1.434,0,0,0,.164-0.278,1.467,1.467,0,0,0,.058-0.163,2,2,0,0,0,.051-0.294l0.018-.179-0.279-.03a1.275,1.275,0,0,0-.237,0,1.407,1.407,0,0,0-.294.057c-0.025.007-.044,0.019-0.068,0.028a1.559,1.559,0,0,1,.151-0.11A1.146,1.146,0,0,1,49,101.807a1.885,1.885,0,0,0,.419-1.06,4.062,4.062,0,0,0-.192-1.518c-0.165-.577-0.489-1.207-0.694-1.973A3.733,3.733,0,0,1,48.383,96a2.187,2.187,0,0,1,.533-1.289,3.933,3.933,0,0,1,1.187-.854c0.209-.111.463-0.22,0.643-0.323,0.175-.118.182-0.19,0.065-0.385-0.146-.179-0.3-0.362-0.464-0.551a2.274,2.274,0,0,0,.486-0.214,0.744,0.744,0,0,0,.325-0.466,1.288,1.288,0,0,0-.02-0.551,3.476,3.476,0,0,0-.766-1.533,0.993,0.993,0,0,0-.568-0.424,9.125,9.125,0,0,1,.939,2.044,0.543,0.543,0,0,1-.125.626,4.6,4.6,0,0,1-.481.266,8.554,8.554,0,0,1-1.228-1.8,4.214,4.214,0,0,1-.426-1.717A2.911,2.911,0,0,1,49,87.063a6.683,6.683,0,0,0,.941-1.4,2.469,2.469,0,0,0-.075-1.541c-0.338-1.035-.81-2-1.221-2.94a15.214,15.214,0,0,1-.985-2.763,6.557,6.557,0,0,1-.09-2.574,4.777,4.777,0,0,1,.786-1.976,3.383,3.383,0,0,1,1.2-1.059l0.138-.07c0.053-.239.11-0.483,0.179-0.739,0.029-.107.067-0.22,0.1-0.331a10.686,10.686,0,0,1-.983-0.594,2.7,2.7,0,0,1-.939-1.4,3.641,3.641,0,0,1-.045-1.851,6.36,6.36,0,0,1,.756-1.839,1.172,1.172,0,0,0,.245-0.838,0.934,0.934,0,0,0-.626-0.59c-0.311-.142-0.662-0.248-1.01-0.433a1.306,1.306,0,0,1-.758-0.981,5.31,5.31,0,0,1,.116-1.181,0.87,0.87,0,0,0-.321-0.869,1.917,1.917,0,0,0-1.027-.286c-0.375-.021-0.783.048-1.217,0.026a2.1,2.1,0,0,1-1.286-.4,1.265,1.265,0,0,1-.39-0.629,1.548,1.548,0,0,1,.007-0.724,9.964,9.964,0,0,1,.456-1.229,1.459,1.459,0,0,0,.078-1.11c-0.142-.337-0.527-0.617-0.712-1.092a2.727,2.727,0,0,1-.089-1.368,6.926,6.926,0,0,0,.111-1.221,1.108,1.108,0,0,0-.491-0.907,3.565,3.565,0,0,1-.5-0.4,1.579,1.579,0,0,1-.352-0.592,1.841,1.841,0,0,1,.062-1.314,1.721,1.721,0,0,1,.938-0.872c0.372-.164.747-0.257,1.047-0.42a0.91,0.91,0,0,0,.316-1.563,2.829,2.829,0,0,1-.631-2.065,1.367,1.367,0,0,1,.6-0.914,1.939,1.939,0,0,1,1.007-.185,1.543,1.543,0,0,0,.807-0.135,0.96,0.96,0,0,0,.369-0.646,2.326,2.326,0,0,1,.3-0.826,1.585,1.585,0,0,1,.658-0.543,1.856,1.856,0,0,1,1.506-.026,1.523,1.523,0,0,1,.843,1,3.463,3.463,0,0,1,.115,1.082c-0.012.352-.023,0.654-0.024,0.914a1.778,1.778,0,0,1,.487.545,1.8,1.8,0,0,1,.238.739,3.216,3.216,0,0,1-.1.9,0.732,0.732,0,0,0,.406.731,2.212,2.212,0,0,1,.882.807,1.327,1.327,0,0,1-.275,1.318,3.7,3.7,0,0,1-1.087.889,2.457,2.457,0,0,0-.965.923,1.235,1.235,0,0,0,.221,1.267,5.892,5.892,0,0,0,1.145,1.072,3.327,3.327,0,0,1,1.088,1.41,1.412,1.412,0,0,1-.035.991,1.909,1.909,0,0,1-.629.745,8.726,8.726,0,0,0-1.4,1.084,2.135,2.135,0,0,0-.661,1.472,2.9,2.9,0,0,0,.516,1.533,11.029,11.029,0,0,0,1.019,1.312,7.48,7.48,0,0,1,.954,1.361,2.962,2.962,0,0,1,.379,1.581,2.517,2.517,0,0,1-.627,1.4c-0.3.377-.633,0.689-0.882,1.026a1.789,1.789,0,0,0-.417,1.06,2.509,2.509,0,0,0,.987,1.722c0.073,0.064.144,0.123,0.216,0.183a3.881,3.881,0,0,1,.6-0.853,6.79,6.79,0,0,1,2.285-1.549c0.439-.206.925-0.344,1.324-0.572a1.269,1.269,0,0,0,.686-1.08c0.038-.479-0.077-1-0.089-1.564a2.382,2.382,0,0,1,.125-0.873,1.828,1.828,0,0,1,.518-0.747,10.529,10.529,0,0,1,1.39-.9,1.755,1.755,0,0,0,.85-1.084,2.746,2.746,0,0,0-.436-1.338,1.524,1.524,0,0,1-.089-0.837,0.926,0.926,0,0,1,.188-0.414,0.779,0.779,0,0,1,.394-0.248,2.974,2.974,0,0,0,.643-0.128,0.426,0.426,0,0,0,.194-0.423,1.108,1.108,0,0,0-.177-0.541,1.729,1.729,0,0,0-.413-0.418,3.136,3.136,0,0,1-.911-0.9,1.271,1.271,0,0,1,.04-1.229,1.819,1.819,0,0,1,1.752-.925,2.712,2.712,0,0,1,1.375.609,4.147,4.147,0,0,1,.5.476,3.5,3.5,0,0,1,.523-0.054,3.576,3.576,0,0,1,1.584.343,2.776,2.776,0,0,1,.846.6,1.8,1.8,0,0,1,.479,1.089,0.921,0.921,0,0,1-.232.658c-0.176.191-.423,0.25-0.468,0.357a0.382,0.382,0,0,0,.095.414,1.676,1.676,0,0,0,.52.316,1.808,1.808,0,0,1,.981,1.16,2.261,2.261,0,0,1-.122,1.609,1.794,1.794,0,0,1-.562.663,4.282,4.282,0,0,1-.744.383,2.538,2.538,0,0,0-.652.376,0.514,0.514,0,0,0-.162.556,7.635,7.635,0,0,0,.39.724,2.01,2.01,0,0,1,.184.934,2.443,2.443,0,0,1-.791,1.7,3.285,3.285,0,0,1-1.676.795,9.377,9.377,0,0,0-1.654.242,0.793,0.793,0,0,0-.5.427,6.113,6.113,0,0,0-.143.779,1.685,1.685,0,0,1-1.311,1.094,6.586,6.586,0,0,1-1.545.057,8.074,8.074,0,0,0-1.388.085,4.242,4.242,0,0,0-2.225.975,3.211,3.211,0,0,0-.287.3,2.064,2.064,0,0,1,.2.2,3.2,3.2,0,0,1,.643,1.258,14.468,14.468,0,0,0,.524,1.738,11.221,11.221,0,0,0,1.11,1.884c0.224,0.33.46,0.671,0.685,1.04a3.389,3.389,0,0,1,.529,1.272,1.462,1.462,0,0,1-.093.769,6.571,6.571,0,0,1-.363.617,1.352,1.352,0,0,0,0,1.215c0.336,0.86,1.266,1.355,1.964,2.193a2.415,2.415,0,0,1,.573,1.541,1.469,1.469,0,0,1-.261.816,2.455,2.455,0,0,1-.586.543,1.059,1.059,0,0,0-.688.909,1.85,1.85,0,0,0,.905.787,1.625,1.625,0,0,1,.763,1.192,2.218,2.218,0,0,1-.23,1.3,5.052,5.052,0,0,1-1.575,1.634,1.619,1.619,0,0,0-.592.654,1.029,1.029,0,0,0-.031.11c0.1,0.094.211,0.2,0.351,0.342l0.756,0.767,0.468,0.483a1.17,1.17,0,0,1,.429.716,1.756,1.756,0,0,1-.342.838,5.667,5.667,0,0,1-.553.741,5.757,5.757,0,0,1-1.591,1.259,2.036,2.036,0,0,0-.755.6,0.823,0.823,0,0,0,.033.866,4.218,4.218,0,0,0,.7.849,2.569,2.569,0,0,1,.667,1.1,1.119,1.119,0,0,1-.044.721,1.057,1.057,0,0,1-.5.507,7.146,7.146,0,0,1-1.136.38c-0.74.2-1.452,0.348-2.1,0.569a6.2,6.2,0,0,0-.91.386,0.638,0.638,0,0,0-.5.5,2.152,2.152,0,0,0,.435.681l0.505,0.658,0.145,0.187a3.008,3.008,0,0,1,.313.243,0.915,0.915,0,0,1,.329.837,0.736,0.736,0,0,1-.354.443,4.95,4.95,0,0,1-.471.232,5.931,5.931,0,0,0-.948.517,1.456,1.456,0,0,0-.629.86c-0.04.182-.039,0.4-0.067,0.633a1.266,1.266,0,0,1-.3.722,3.368,3.368,0,0,1-1.214.708,8.983,8.983,0,0,1-1.195.391,9.655,9.655,0,0,1-2.094.279,3.813,3.813,0,0,0-1.145.194c-0.006.044-.013,0.089-0.019,0.144a2.883,2.883,0,0,0,.162,1.282,2.567,2.567,0,0,0,1.323,1.465,2.663,2.663,0,0,0,2.543-.152,2.441,2.441,0,0,1,.759-0.341,1.845,1.845,0,0,1,.889.027,6.218,6.218,0,0,1,1.6.816,4.353,4.353,0,0,0,1.649.717,3.5,3.5,0,0,0,1.86-.179c0.3-.115.61-0.289,0.97-0.4a1.458,1.458,0,0,1,.594-0.069,0.964,0.964,0,0,1,.585.277,2.167,2.167,0,0,1,.449,1.087,1.2,1.2,0,0,0,.437.815,1.535,1.535,0,0,0,.964.12,7.488,7.488,0,0,1,1.16-.091,4.49,4.49,0,0,1,1.19.2,4.4,4.4,0,0,1,.57.219l0.113,0.055c0.16,0.3-.393-0.749-0.71-1.355-0.355-.684-0.7-1.319-1.046-2.015a1.494,1.494,0,0,1-.119-0.625,0.878,0.878,0,0,1,.033-0.18,0.554,0.554,0,0,1,.324-0.356,0.781,0.781,0,0,1,.108-0.048l0.087,0.069a1.043,1.043,0,0,1,.168.19l0.087,0.108,0.168,0.211,0.333,0.418,1.3,1.628,2.391,3.013,0.55,0.7a2.268,2.268,0,0,1,.482.778A1.065,1.065,0,0,1,65.743,122.061ZM8.737,66.623a24.5,24.5,0,0,1,1.977,1.74,21.286,21.286,0,0,0,2.013,1.758,2.522,2.522,0,0,0,.973.548,4.01,4.01,0,0,0-.792-0.771c-0.5-.451-1.163-1.11-1.916-1.831A12.871,12.871,0,0,0,8.9,66.386a2.358,2.358,0,0,0-1.024-.448A4.519,4.519,0,0,0,8.737,66.623Zm-0.408-7.63a8.159,8.159,0,0,0-.606.921,8.163,8.163,0,0,0-.757.8,1.083,1.083,0,0,0,1.073-.548A1.094,1.094,0,0,0,8.329,58.993ZM10.914,62.1a1.164,1.164,0,0,1-.338.442,0.629,0.629,0,0,1-.236.091,0.566,0.566,0,0,1-.129,0l-0.056-.011-0.009-.007s0-.012,0-0.012l0-.2c0-.141.006-0.284,0.01-0.431a11.763,11.763,0,0,0,.062-2.163,4.1,4.1,0,0,0-.466,2.15c0,0.153-.005.3,0,0.446l0.008,0.212c0.009,0.132-.019.282,0.136,0.3a0.683,0.683,0,0,0,.521.04,0.835,0.835,0,0,0,.334-0.193,0.681,0.681,0,0,0,.235-0.482A0.175,0.175,0,0,0,10.914,62.1Zm5.873,5.653a0.217,0.217,0,0,1-.131.258,0.589,0.589,0,0,1-.376.08,3.174,3.174,0,0,1-.564-0.062,3.33,3.33,0,0,1-1.332-.583,2.426,2.426,0,0,1-.987-1.387,0.887,0.887,0,0,1,.145-0.758,1.418,1.418,0,0,1,.7-0.364,2.181,2.181,0,0,0,.808-0.37,0.813,0.813,0,0,0,.261-0.38,0.443,0.443,0,0,0-.123-0.474,0.618,0.618,0,0,0-.375-0.119,2.6,2.6,0,0,0-.293.009,2.369,2.369,0,0,0-.455.083,0.617,0.617,0,0,0-.355.172,1,1,0,0,0,.383-0.017,3.66,3.66,0,0,1,.433-0.011,0.879,0.879,0,0,1,.474.1,0.3,0.3,0,0,1-.162.378,2.008,2.008,0,0,1-.7.27,1.713,1.713,0,0,0-.894.463,1.269,1.269,0,0,0-.242,1.1,2.2,2.2,0,0,0,.461.961,3.327,3.327,0,0,0,2.211,1.215,2.828,2.828,0,0,0,.616.005,0.721,0.721,0,0,0,.462-0.181,0.3,0.3,0,0,0,.122-0.306C16.839,67.751,16.793,67.744,16.787,67.751Zm5.4,9.344a24.593,24.593,0,0,0-2.013-2.406c-0.9-.969-2.044-2.058-3.32-3.247s-2.679-2.493-4.009-3.989a40.371,40.371,0,0,0-3.8-4.24C7.708,62.057,6.383,61.2,5.314,60.434a28.819,28.819,0,0,1-2.461-1.9,9.869,9.869,0,0,0-.86-0.756,0.84,0.84,0,0,0,.175.243,8.372,8.372,0,0,0,.578.629,21.953,21.953,0,0,0,2.4,2.017C6.2,61.465,7.5,62.345,8.8,63.492a43.884,43.884,0,0,1,3.745,4.23A54.954,54.954,0,0,0,16.6,71.716c1.291,1.175,2.443,2.236,3.367,3.172s1.628,1.734,2.094,2.3a7.336,7.336,0,0,0,.741.876A5.458,5.458,0,0,0,22.184,77.095Zm0.727-61.2a2.221,2.221,0,0,0,1.079-.3,0.35,0.35,0,0,1,.22-0.057,0.276,0.276,0,0,1,.092.185,0.551,0.551,0,0,0,.093.324c0.049,0.016.152-.09,0.193-0.325a0.523,0.523,0,0,0-.138-0.469,0.443,0.443,0,0,0-.34-0.109,1.025,1.025,0,0,0-.265.074A1.427,1.427,0,0,0,22.91,15.893ZM24.789,14a2.3,2.3,0,0,0-.869-1.51c-0.557-.415-1.1-0.613-1.423-0.848a2.779,2.779,0,0,0-.546-0.4,0.862,0.862,0,0,0,.367.619,16.043,16.043,0,0,0,1.353.943,2.482,2.482,0,0,1,.838,1.249,2.663,2.663,0,0,0,.179.654A0.875,0.875,0,0,0,24.789,14Zm0.377,3.747c-0.058-.259-0.23-0.325-0.259-0.285a1.271,1.271,0,0,0-.026.3,0.749,0.749,0,0,1-.314.477,1.937,1.937,0,0,1-.637.214,0.409,0.409,0,0,0-.318.137,0.365,0.365,0,0,0,.324.149,1.246,1.246,0,0,0,.847-0.158A0.836,0.836,0,0,0,25.166,17.746Zm2.7-17.46-0.023-.079a0.669,0.669,0,0,0-.085,0H27.753a1.413,1.413,0,0,1,.117.082Zm1.769,5.42a4.017,4.017,0,0,0-1.415,1.186,0.832,0.832,0,0,0-.093.179,0.7,0.7,0,0,0-.046.235,0.353,0.353,0,0,0,.3.377,0.422,0.422,0,0,0,.234-0.041l0.111-.056a0.16,0.16,0,0,1,.111-0.011,0.389,0.389,0,0,1,.212.159,1.44,1.44,0,0,1,.093.282c0.02,0.035.2-.09,0.125-0.374a0.587,0.587,0,0,0-.313-0.371,0.485,0.485,0,0,0-.342-0.025c-0.053.013-.115,0.044-0.117,0.042a0.013,0.013,0,0,1-.009,0,0.011,0.011,0,0,1,0-.012c0,0.011.006-.02,0.02-0.057a0.465,0.465,0,0,1,.05-0.094A4.292,4.292,0,0,0,29.637,5.706ZM28.852,16.15a1.1,1.1,0,0,0-.018-0.776,3.2,3.2,0,0,0-.307-0.791,4.181,4.181,0,0,1-.42-0.836,0.575,0.575,0,0,1,.242-0.658,3.232,3.232,0,0,1,.684-0.329A1.5,1.5,0,0,0,29.7,12.4a1.487,1.487,0,0,0-.755.088,2.594,2.594,0,0,0-.806.293,0.99,0.99,0,0,0-.387.435,0.959,0.959,0,0,0-.038.633,3.429,3.429,0,0,0,.491.925,4.362,4.362,0,0,1,.355.689A2.461,2.461,0,0,0,28.852,16.15ZM40.229,28.5a0.286,0.286,0,0,0-.269-0.191,8.562,8.562,0,0,0,.048.9,8.624,8.624,0,0,0-.166.889,0.286,0.286,0,0,0,.291-0.153A1.259,1.259,0,0,0,40.229,28.5Zm2.584-3.451a0.981,0.981,0,0,1-.251-0.733,7.343,7.343,0,0,0-.183-2.4,7.256,7.256,0,0,0-.221,2.4,1.562,1.562,0,0,0,.087.542,1.369,1.369,0,0,0,.286.429,1.528,1.528,0,0,1,.413.533,0.523,0.523,0,0,1-.023.4,0.894,0.894,0,0,0-.107.143c0,0.021.09,0.059,0.219-.032a0.612,0.612,0,0,0,.191-0.566A1.49,1.49,0,0,0,42.813,25.048Zm3.6-4.624a2.742,2.742,0,0,0-.616,1.817,2.789,2.789,0,0,1,.019.934,1.867,1.867,0,0,1-.412.617,1.13,1.13,0,0,0-.419.658A2.521,2.521,0,0,0,45.6,24a1.81,1.81,0,0,0,.563-0.7,2.517,2.517,0,0,0,.035-1.073,3.027,3.027,0,0,1,.445-1.637,3.292,3.292,0,0,0,.4-0.634A1.032,1.032,0,0,0,46.409,20.424Zm5.621,3.217c0.076,0.18.155,0.313,0.2,0.426,0.108,0.217.08,0.366,0.134,0.395s0.2-.154.141-0.473a2.279,2.279,0,0,1-.156-0.927,1.425,1.425,0,0,1,.618-0.642,0.692,0.692,0,0,0,.347-0.295,0.544,0.544,0,0,0-.47.036,1.731,1.731,0,0,0-.462.231,1.079,1.079,0,0,0-.42.554A1.011,1.011,0,0,0,52.031,23.641Zm-2.188,2.672a1.225,1.225,0,0,0,.859.081,0.322,0.322,0,0,0,.29-0.226,7.6,7.6,0,0,1-.977-0.222,7.636,7.636,0,0,1-.8-0.611,0.324,0.324,0,0,0,.013.368A1.233,1.233,0,0,0,49.842,26.313Zm-2.247,2.811a6.7,6.7,0,0,1,.249.752c0.106,0.423,0,.691.06,0.719a0.768,0.768,0,0,0,.222-0.76c-0.019-.5-0.338-1.12-0.371-1.747a1.184,1.184,0,0,1,.017-0.224l0.019-.1c0.011-.037,0-0.015.006-0.023s-0.036-.042.154,0.1a1.98,1.98,0,0,0,.818.317,0.908,0.908,0,0,0,.777-0.117,5.63,5.63,0,0,0-.716-0.163,2.09,2.09,0,0,1-.663-0.341,1.313,1.313,0,0,0-.234-0.17,0.346,0.346,0,0,0-.422.085,0.56,0.56,0,0,0-.1.2l-0.032.148a1.5,1.5,0,0,0-.024.3A3.319,3.319,0,0,0,47.595,29.123Zm-2.773,2.653a0.414,0.414,0,0,0,.433.113,0.806,0.806,0,0,0-.243-0.327,1.4,1.4,0,0,1-.184-1.589A0.808,0.808,0,0,0,44.99,29.6a0.414,0.414,0,0,0-.4.21A1.331,1.331,0,0,0,44.822,31.776ZM29.25,52.767a2.694,2.694,0,0,0-1.378,1.2,2.567,2.567,0,0,0-.336,1.232l-0.006.875,0.341-.791a6.278,6.278,0,0,1,.7-0.992,0.671,0.671,0,0,0-.511.225,2.607,2.607,0,0,1,.163-0.35,3.042,3.042,0,0,1,1.145-1.137A2.924,2.924,0,0,0,30,52.7,0.949,0.949,0,0,0,29.25,52.767Zm18.369-5.645a0.738,0.738,0,0,0-.368.81,1.884,1.884,0,0,0,.625-0.5,1.887,1.887,0,0,0,.6-0.524A0.732,0.732,0,0,0,47.619,47.121Zm1.046,2.118a3.378,3.378,0,0,0-1.779,1.284c-0.1.117-.192,0.235-0.278,0.352l-0.181.262c-0.068.1-.13,0.2-0.19,0.3l-0.17.283-0.077.131,0.155-.05c0.2-.065.383-0.126,0.55-0.19s0.306-.116.356-0.143c0.071-.034.131-0.065,0.18-0.093a0.214,0.214,0,0,0,.139-0.126,0.211,0.211,0,0,0-.185-0.025c-0.056,0-.123.014-0.2,0.027a0.4,0.4,0,0,1-.147.015,0.059,0.059,0,0,1-.04-0.013,0.131,0.131,0,0,1,.043-0.048,0.109,0.109,0,0,0,.022-0.02,0.543,0.543,0,0,0,.061-0.072c0.085-.108.174-0.218,0.269-0.328C47.943,49.9,48.727,49.339,48.666,49.24ZM48.48,53.285a1.578,1.578,0,0,0-1.641.98,0.319,0.319,0,0,0,.044.37,5.138,5.138,0,0,1,.714-0.718A2.543,2.543,0,0,0,48.48,53.285Zm-0.24,7.684a4.378,4.378,0,0,0-1.161-1.812,1.865,1.865,0,0,1-.421-0.487A1.4,1.4,0,0,1,46.586,58a4.354,4.354,0,0,0-.354-1.7,16.873,16.873,0,0,1-.88-3.7,17.748,17.748,0,0,1,.5-6.861c0.461-1.719.99-2.7,0.917-2.736a2.91,2.91,0,0,0-.4.672c-0.112.225-.234,0.508-0.38,0.836-0.122.336-.285,0.713-0.41,1.147a15.945,15.945,0,0,0-.7,3.681l0-.045-0.025-.162a2.325,2.325,0,0,0-.549-1.128,0.589,0.589,0,0,0-.439-0.284,10.479,10.479,0,0,1,.591,1.487l0.029,0.174a0.084,0.084,0,0,1,.01.023c-0.006,0,0,.027-0.058-0.006a2.886,2.886,0,0,1-.257-0.2,0.488,0.488,0,0,0-.266-0.177,0.35,0.35,0,0,0,.087.327,1.44,1.44,0,0,0,.232.293,1.787,1.787,0,0,0,.288.217c0.1,0.06.206,0.118,0.322,0.181a16.36,16.36,0,0,0,.111,2.607,16.076,16.076,0,0,0,.932,3.775,4.113,4.113,0,0,1,.368,1.563,1.661,1.661,0,0,0,.131.821,2.07,2.07,0,0,0,.506.556,4.641,4.641,0,0,1,1.206,1.656c0.2,0.453.254,0.726,0.286,0.719A1.79,1.79,0,0,0,48.241,60.968Zm10.123,4.56a0.649,0.649,0,0,0,.413.5,0.849,0.849,0,0,0,.469,0,0.6,0.6,0,0,0,.352-0.145,0.376,0.376,0,0,0-.373-0.141,0.858,0.858,0,0,1-.311-0.062,0.318,0.318,0,0,1-.154-0.233,0.85,0.85,0,0,1,.209-0.646,0.5,0.5,0,0,0,.168-0.345,0.422,0.422,0,0,0-.372.144,1.138,1.138,0,0,0-.3.332A0.846,0.846,0,0,0,58.364,65.528Zm-4.794,3.559c0.783-.55,1.691-1.109,2.566-1.829a18.116,18.116,0,0,0,3.625-4.447,14.348,14.348,0,0,0,.866-1.514,1.332,1.332,0,0,0,.1-0.4c0.013,0.021.022,0.045,0.035,0.065a1.857,1.857,0,0,0,.79.684,1.534,1.534,0,0,0,.382.119,0.522,0.522,0,0,0,.329-0.03,0.224,0.224,0,0,0,.146-0.173c0-.057-0.025-0.075-0.036-0.073a0.2,0.2,0,0,1-.158.1,0.414,0.414,0,0,1-.223-0.039,1.716,1.716,0,0,1-.308-0.153,1.662,1.662,0,0,1-.8-1.64,1.684,1.684,0,0,1,.459-0.933,2.985,2.985,0,0,1,.756-0.5,1.53,1.53,0,0,0,.746-0.518,3.266,3.266,0,0,0-.86.255,2.676,2.676,0,0,0-.9.49,1.927,1.927,0,0,0-.6,1.145,1.819,1.819,0,0,0,.174,1.085,1.733,1.733,0,0,1-.177.454c-0.191.342-.556,0.819-0.961,1.423a20.908,20.908,0,0,1-3.644,4.292c-0.845.7-1.741,1.263-2.524,1.838a10.967,10.967,0,0,0-1.938,1.723,5.487,5.487,0,0,0-.935,1.487,1.449,1.449,0,0,0-.164.623A8.843,8.843,0,0,1,51.628,70.7,12.1,12.1,0,0,1,53.569,69.088Zm0.277,19.339c-0.234.36-.108,0.726,0,0.7a7.947,7.947,0,0,0,.639-0.985C54.464,88.034,54.08,88.066,53.846,88.427Zm1.544,1.538a1.7,1.7,0,0,0,.629-0.347,1.154,1.154,0,0,0-.73.078,2.661,2.661,0,0,0-1.485,1.02,1.993,1.993,0,0,0-.312.785,1.567,1.567,0,0,0-.015.393,3,3,0,0,0,.118.545c0.121-.067.225-0.122,0.323-0.187,0.049-.031.094-0.069,0.137-0.1l0.078-.074a1.307,1.307,0,0,0,.2-0.271,0.325,0.325,0,0,0,.074-0.286,0.481,0.481,0,0,0-.221.171,2.088,2.088,0,0,1-.229.185l-0.069.045-0.026.009a0.1,0.1,0,0,1-.039,0,0.15,0.15,0,0,1,.007-0.059,1.422,1.422,0,0,1,.034-0.3,1.862,1.862,0,0,1,.271-0.63A3.028,3.028,0,0,1,55.39,89.965ZM53.2,97.032a1.045,1.045,0,0,0-.035-0.544c-0.024-.161-0.051-0.352-0.069-0.567-0.009-.107-0.017-0.169-0.021-0.287a0.187,0.187,0,1,1,0-.019h0l0-.048c0.112,0.048.222,0.069,0.33,0.115s0.233,0.095.348,0.148c0.2,0.1.391,0.192,0.583,0.289a1.177,1.177,0,0,0,.577.235,0.945,0.945,0,0,0-.421-0.48,4.749,4.749,0,0,0-.564-0.386c-0.111-.065-0.23-0.13-0.356-0.192l-0.194-.091-0.1-.044L53.133,95.1l-0.461-.172q0,0.191,0,.379c0,0.124.011,0.262,0.015,0.3,0.012,0.126.03,0.247,0.051,0.361a3.489,3.489,0,0,0,.163.586A0.766,0.766,0,0,0,53.2,97.032Zm-2.91,5.525a1.591,1.591,0,0,0,.523-0.778,1.728,1.728,0,0,0-.149-1.4,1.174,1.174,0,0,1-.2-0.635,2.116,2.116,0,0,1,.2-0.727,1.082,1.082,0,0,1,.373-0.571,0.431,0.431,0,0,1,.229-0.042,0.246,0.246,0,0,0,0,.116,0.269,0.269,0,0,0,.049-0.113,0.675,0.675,0,0,1,.264.1,2.6,2.6,0,0,1,.714.971,9.83,9.83,0,0,0,.514,1.091,2.335,2.335,0,0,0-.254-1.209,5.107,5.107,0,0,0-.267-0.573,1.69,1.69,0,0,0-.5-0.593,1.089,1.089,0,0,0-.366-0.153c0.03-.12.063-0.257,0.1-0.42,0.135-.587.317-1.438,0.534-2.492a29.283,29.283,0,0,0,.623-3.748,25.032,25.032,0,0,0-.367-4.641c-0.232-1.628-.394-3.173-0.669-4.591a13.694,13.694,0,0,0-.593-1.951,9.545,9.545,0,0,1-.446-1.671,16.014,16.014,0,0,1-.191-2.517,4.842,4.842,0,0,0-.036-0.935,3.69,3.69,0,0,0-.121.931,12.768,12.768,0,0,0,.065,2.565,9.311,9.311,0,0,0,.411,1.735,14.164,14.164,0,0,1,.546,1.918c0.247,1.378.4,2.949,0.633,4.57a26.756,26.756,0,0,1,.4,4.568,34.189,34.189,0,0,1-.532,3.714c-0.181,1.061-.32,1.92-0.408,2.516-0.024.167-.044,0.307-0.06,0.431a0.84,0.84,0,0,0-.449.073,1.377,1.377,0,0,0-.565.767,2.368,2.368,0,0,0-.226.878,1.506,1.506,0,0,0,.275.823,1.489,1.489,0,0,1,.2,1.142,2.643,2.643,0,0,1-.557,1A0.442,0.442,0,0,0,50.29,102.557Zm12.973,25.61c0,0.029,0,.061-0.007.089,0.008-.012.018-0.022,0.027-0.034S63.27,128.185,63.263,128.167ZM20.414,44.613a2.7,2.7,0,0,0-.081.274A0.689,0.689,0,0,0,20.31,45l0.415,0.032c0.2,0.017.393,0.039,0.587,0.07a3.216,3.216,0,0,1,2.027,1,2.021,2.021,0,0,1,.482.981A1.992,1.992,0,0,1,23.7,48.1a4.765,4.765,0,0,0-.258.861,1.768,1.768,0,0,0,.088.8,3.219,3.219,0,0,0,.85,1.228,6.774,6.774,0,0,0,.726.591,0.985,0.985,0,0,1,.309-0.408c0.227-.178.481-0.277,0.653-0.436a0.835,0.835,0,0,0,.164-0.227,2.172,2.172,0,0,0,.463.612,2.365,2.365,0,0,0,.609.4,0.626,0.626,0,0,1,.269.212,0.338,0.338,0,0,1-.024.322,4.716,4.716,0,0,0-.623,2,7.271,7.271,0,0,0,.269,2.53A21.29,21.29,0,0,0,28.217,59.3,23.97,23.97,0,0,1,29.3,62.253c0.252,0.829.487,1.694,0.772,2.569l-0.023.041,0.028-.025c0.074,0.227.149,0.454,0.231,0.681a10.853,10.853,0,0,0,1.613,3.054,31.023,31.023,0,0,0,2.192,2.312,8.044,8.044,0,0,1,1.643,2.262,17.455,17.455,0,0,1,.815,2.339l0.04,0.136a0.8,0.8,0,0,0-.406-0.305c-0.751-.242-1.715.32-2.72,0.193a4.18,4.18,0,0,1-1.453-.372,1.9,1.9,0,0,1-.652-0.474,1.091,1.091,0,0,1-.256-0.826c0.059-.559.354-1,0.327-1.383a0.542,0.542,0,0,0-.255-0.437,1.276,1.276,0,0,0-.592-0.136,5.281,5.281,0,0,1-1.456-.114A2.229,2.229,0,0,1,28,70.805a3.508,3.508,0,0,1-.48-1.362,7.882,7.882,0,0,1-.037-1.377c0.018-.447.047-0.881,0.039-1.3a2.743,2.743,0,0,0-.212-1.172,1.659,1.659,0,0,0-.852-0.708,6.258,6.258,0,0,1-1.115-.565,2.594,2.594,0,0,1-1.017-2.182c-0.009-.844.7-1.462,0.508-2.038a1.269,1.269,0,0,0-.581-0.681c-0.266-.179-0.558-0.326-0.838-0.494a2.435,2.435,0,0,1-.758-0.631,1.117,1.117,0,0,1-.168-0.958,1.933,1.933,0,0,1,.473-0.754c0.189-.2.382-0.383,0.554-0.564a2.292,2.292,0,0,0,.419-0.559,0.893,0.893,0,0,0,.062-0.6c-0.05-.194-0.16-0.376-0.218-0.581a1.415,1.415,0,0,1-.051-0.595,1.737,1.737,0,0,1,.942-1.345c0.025-.012.044-0.016,0.068-0.025l-1.409-1.655a4.248,4.248,0,0,0-1.135-.975,3.623,3.623,0,0,0-.748-0.273,1.586,1.586,0,0,1-.822-0.467,1.052,1.052,0,0,1-.113-1.007c0.1-.31.245-0.58,0.32-0.854A0.713,0.713,0,0,0,20.7,46.37a1.209,1.209,0,0,0-.758-0.317,12.768,12.768,0,0,1-2.029.108,1.356,1.356,0,0,1-.926-0.733,0.885,0.885,0,0,1-.008-0.665,1.32,1.32,0,0,1,.376-0.5,4.679,4.679,0,0,0,.774-0.672,0.48,0.48,0,0,0-.157-0.691,1.365,1.365,0,0,0-.929-0.221,4.527,4.527,0,0,1-1.175-.006,1.167,1.167,0,0,1-.912-0.916,0.712,0.712,0,0,1,.254-0.693,1.537,1.537,0,0,1,.587-0.237c0.364-.082.471-0.232,0.348-0.5a1.378,1.378,0,0,0-.774-0.5,2.5,2.5,0,0,1-1.4-1.707,2.4,2.4,0,0,1-.006-1.1,1.35,1.35,0,0,0,.021-0.872,1.811,1.811,0,0,0-1.361-.968c-0.582-.126-1.194-0.122-1.791-0.271a1.037,1.037,0,0,1-.78-0.587,2.43,2.43,0,0,1-.041-0.883,0.689,0.689,0,0,0-.24-0.587,1.478,1.478,0,0,0-.639-0.245,4.805,4.805,0,0,1-1.407-.346,1.735,1.735,0,0,1-.8-1.059,1.672,1.672,0,0,1,.075-1.149,7.718,7.718,0,0,0,.465-0.786,0.608,0.608,0,0,0-.167-0.609,1.636,1.636,0,0,0-.424-0.3c-0.054-.028-0.1-0.05-0.144-0.07a0.939,0.939,0,0,1-.114.27,1.191,1.191,0,0,1-.846.507,1.392,1.392,0,0,1-.97-0.208,2.046,2.046,0,0,1-.66-0.731,4.833,4.833,0,0,1-.512-1.865,5.982,5.982,0,0,1,.16-1.982l0.066-.241A0.077,0.077,0,0,0,3.876,24l-0.32-.168a8.788,8.788,0,0,1-.874-0.527,3.415,3.415,0,0,1-1.333-1.593,2.3,2.3,0,0,1,.22-2.034,1.572,1.572,0,0,1,.38-0.379c0.141-.1.345-0.179,0.4-0.219s0.05-.052-0.007-0.161a1.251,1.251,0,0,0-.274-0.281A4.9,4.9,0,0,1,.892,17.213q-0.1-.193-0.19-0.39a1.3,1.3,0,0,0,.69.346,2.026,2.026,0,0,0,1.062-.147,0.538,0.538,0,0,0,.365-0.253,0.578,0.578,0,0,0-.436-0.025,3.526,3.526,0,0,1-.928.024,1.3,1.3,0,0,1-.741-0.4,1.373,1.373,0,0,0-.252-0.314,0.045,0.045,0,0,0-.022.019,4.48,4.48,0,0,1-.068-2.191A1.31,1.31,0,0,1,.83,13.173a1.7,1.7,0,0,1,.739-0.308c0.5-.081.963-0.052,1.386-0.089a1.093,1.093,0,0,0,.962-0.465,2.112,2.112,0,0,0,.106-1.037A1.133,1.133,0,0,1,4.4,10.321a1.337,1.337,0,0,1,.812-0.279,2.342,2.342,0,0,1,1.1.323,2.105,2.105,0,0,1,.322.2,2.727,2.727,0,0,1,.487.244,1.586,1.586,0,0,1,.675.832,1.344,1.344,0,0,1,.062.656,1.024,1.024,0,0,1-.377.629,1.588,1.588,0,0,0-.482.486c-0.07.19,0.12,0.349,0.377,0.45a12.99,12.99,0,0,1,1.611.81,3.248,3.248,0,0,1,1.362,1.541,2.283,2.283,0,0,1,.152,1.134,2.066,2.066,0,0,1-.525,1.072,1.347,1.347,0,0,0-.441.918,0.984,0.984,0,0,0,.726.681,6.7,6.7,0,0,1,1.18.509,3.323,3.323,0,0,1,.986.944,2.122,2.122,0,0,1,.425,1.377,1.325,1.325,0,0,1-.316.714,3.64,3.64,0,0,1-.537.493,2.6,2.6,0,0,0-.477.448,0.979,0.979,0,0,0-.228.537,0.5,0.5,0,0,0,.23.436,1.2,1.2,0,0,0,.6.108,4.336,4.336,0,0,1,1.532.065,1.819,1.819,0,0,1,1.072,1.228,2.4,2.4,0,0,1-.185,1.63,15.371,15.371,0,0,1-.862,1.315,1.106,1.106,0,0,0-.187.626,0.623,0.623,0,0,0,.324.485,3.46,3.46,0,0,0,.694.28,3.41,3.41,0,0,1,.765.369,3.446,3.446,0,0,1,1.555,2.849c0,0.547-.077,1.061-0.05,1.549a1.825,1.825,0,0,0,.509,1.245,0.91,0.91,0,0,0,.562.242,4.114,4.114,0,0,1,.778.048,0.969,0.969,0,0,1,.65.61,1.227,1.227,0,0,1,.006.859,0.971,0.971,0,0,1-.258.374,1.128,1.128,0,0,1-.38.205,1.279,1.279,0,0,0-.566.263A0.91,0.91,0,0,0,18,40.9a1.3,1.3,0,0,0,1.019.55,3.609,3.609,0,0,0,.64-0.053,1.243,1.243,0,0,1,.75.107,1.106,1.106,0,0,1,.5.581,1.858,1.858,0,0,1,.117.7,3.25,3.25,0,0,1-.374,1.268C20.561,44.246,20.479,44.43,20.414,44.613ZM29.9,69.849a0.466,0.466,0,0,0,.088-0.118,0.094,0.094,0,0,0,.021.086,0.626,0.626,0,0,0,.3-0.256,3.51,3.51,0,0,1,.281-0.272c0.056-.047.115-0.1,0.18-0.142,0.011,0,.01,0,0.01,0a0,0,0,0,1,0,0,12.094,12.094,0,0,0,.438,1.415,1.855,1.855,0,0,0-.082-1.615l-0.176-.406a4.737,4.737,0,0,0-.428.3,1.9,1.9,0,0,0-.192.191,1.726,1.726,0,0,0-.25.373,1.064,1.064,0,0,0-.088.25A0.353,0.353,0,1,0,29.9,69.849ZM25.047,52.274l-0.028.009,0.041,0.05C25.055,52.314,25.05,52.295,25.047,52.274Zm0.546,1.238c-0.3-.354-0.713-0.339-0.719-0.228a1.551,1.551,0,0,0,.411.491,1.548,1.548,0,0,0,.417.486C25.813,54.273,25.893,53.865,25.593,53.512Zm1.592,10a2.568,2.568,0,0,1,1.065,1.134,2.617,2.617,0,0,1,.166,1.552,2.884,2.884,0,0,0-.148.685,0.916,0.916,0,0,0,.423-0.608,2.414,2.414,0,0,0-.074-1.8A2.376,2.376,0,0,0,27.3,63.25a0.9,0.9,0,0,0-.736-0.065A2.948,2.948,0,0,0,27.185,63.511Zm-3.026-5.366a0.894,0.894,0,0,0,.437.5,3.311,3.311,0,0,0,1.462.588,0.4,0.4,0,0,1,.12.045s0.008,0,0,0a0.25,0.25,0,0,1-.144.164c-0.179.1-.417,0.127-0.625,0.221a0.7,0.7,0,0,0-.391.36c-0.046.131,0,.2,0.019,0.2a0.823,0.823,0,0,1,.468-0.292,3.274,3.274,0,0,0,.7-0.157,0.606,0.606,0,0,0,.367-0.431,0.362,0.362,0,0,0-.129-0.379,0.694,0.694,0,0,0-.284-0.131A9.87,9.87,0,0,1,24.159,58.145ZM4.871,25.937a0.418,0.418,0,0,0,.225.379,4.206,4.206,0,0,1,.316-1.209A4.174,4.174,0,0,1,6.3,24.235a0.414,0.414,0,0,0-.439-0.009A1.562,1.562,0,0,0,4.871,25.937ZM3.929,22.088a1.361,1.361,0,0,0-.235.189c-0.048,0-.1,0-0.144-0.006a5.068,5.068,0,0,1-.773-0.111,2.279,2.279,0,0,0-.735-0.146,1.138,1.138,0,0,0,.652.42,3.539,3.539,0,0,0,.746.194h0a0.526,0.526,0,0,0,.012.638,2.873,2.873,0,0,1,.213-0.51,0.825,0.825,0,0,1,.083-0.092A1.512,1.512,0,0,0,4.6,22.5a0.739,0.739,0,0,0,.373-0.522l0.043-.315-0.3.093A3.271,3.271,0,0,0,3.929,22.088Zm3.77-5.9a2,2,0,0,0-1.36,1.265,2.748,2.748,0,0,0,.047,1.846,1.113,1.113,0,0,0,.4.644,2.078,2.078,0,0,0-.122-0.722,3.115,3.115,0,0,1,.059-1.631,1.978,1.978,0,0,1,1.066-1.128c0.383-.16.666-0.119,0.676-0.184A0.782,0.782,0,0,0,7.7,16.184Zm2.267,5.451a1.555,1.555,0,0,0-.779,1.1,1.562,1.562,0,0,0,0,1.348,4.61,4.61,0,0,0,.388-1.224A4.619,4.619,0,0,0,9.966,21.635Zm9.707,22.333c-0.949-1.658-2.066-3.64-3.254-5.869S14,33.381,12.647,30.791a76.505,76.505,0,0,0-4.129-7.132C7.819,22.6,7.1,21.627,6.413,20.741a6.476,6.476,0,0,1-1.4-2.686,8.277,8.277,0,0,1,0-2.53c0.09-.752.182-1.4,0.214-1.942a7.547,7.547,0,0,0-.018-1.241,1.677,1.677,0,0,0-.086-0.424,15.357,15.357,0,0,1-.052,1.652C5.019,14.1,4.9,14.74,4.792,15.5a8.284,8.284,0,0,0-.058,2.613,6.7,6.7,0,0,0,1.411,2.835c0.678,0.9,1.375,1.865,2.062,2.922,1.384,2.1,2.736,4.529,4.081,7.114s2.591,5.074,3.8,7.3,2.354,4.2,3.335,5.837,1.8,2.955,2.378,3.856L22.479,49a1.744,1.744,0,0,0,.259.345,1.738,1.738,0,0,0-.189-0.388l-0.609-1.07Z"/>
		</symbol>
		<symbol id="swimSeaweedBubble">
			<circle cx="10" cy="10" r="5"/>
		</symbol>
	</defs>

	<g class="fishswim__seaweed fishswim__seaweed_1">
		<use class="seaweed__item seaweed__item_1" xlink:href="#swimSeaweed"/>
	</g>

	<g class="fishswim__seaweed fishswim__seaweed_2">
		<use class="seaweed__item seaweed__item_2" xlink:href="#swimSeaweed"/>
	</g>

	<g class="fishswim__bubble fishswim__bubble_1">
		<use class="seaweed__bubble seaweed__bubble_1" xlink:href="#swimSeaweedBubble"/>
		<use class="seaweed__bubble seaweed__bubble_2" xlink:href="#swimSeaweedBubble"/>
		<use class="seaweed__bubble seaweed__bubble_3" xlink:href="#swimSeaweedBubble"/>
		<use class="seaweed__bubble seaweed__bubble_4" xlink:href="#swimSeaweedBubble"/>
	</g>


	<g class="fishswim__bubble fishswim__bubble_2">
		<use class="seaweed__bubble seaweed__bubble_1" xlink:href="#swimSeaweedBubble"/>
		<use class="seaweed__bubble seaweed__bubble_2" xlink:href="#swimSeaweedBubble"/>
		<use class="seaweed__bubble seaweed__bubble_3" xlink:href="#swimSeaweedBubble"/>
		<use class="seaweed__bubble seaweed__bubble_4" xlink:href="#swimSeaweedBubble"/>
	</g>

</svg>
