<svg xmlns="http://www.w3.org/2000/svg" width="35" height="35" viewBox="0 0 35 35">
  <path fill="#ffffff" d="M1718.96,730.012a0.932,0.932,0,0,1-.68-0.307,1.135,1.135,0,0,1,0-1.487l3.39-3.716-3.39-3.716a1.133,1.133,0,0,1,0-1.486,0.9,0.9,0,0,1,1.36,0l4.06,4.459a1.111,1.111,0,0,1,0,1.486l-4.06,4.46A0.916,0.916,0,0,1,1718.96,730.012Z" transform="translate(-1703 -707)"/>
</svg>
